%YAML 1.1
%TAG !u! tag:unity3d.com,2011:
--- !u!114 &11400000
MonoBehaviour:
  m_ObjectHideFlags: 0
  m_CorrespondingSourceObject: {fileID: 0}
  m_PrefabInstance: {fileID: 0}
  m_PrefabAsset: {fileID: 0}
  m_GameObject: {fileID: 0}
  m_Enabled: 1
  m_EditorHideFlags: 0
  m_Script: {fileID: 11500000, guid: 30a6298cc041cc746a658348cf1e585b, type: 3}
  m_Name: Roaming
  m_EditorClassIdentifier: 
  roamingBehaviour:
    stopTime:
      min: 0.2
      max: 1
    stopFrequency:
      min: 4
      max: 5
