%YAML 1.1
%TAG !u! tag:unity3d.com,2011:
--- !u!95 &2728184139656636126
Animator:
  serializedVersion: 3
  m_ObjectHideFlags: 0
  m_CorrespondingSourceObject: {fileID: 0}
  m_PrefabInstance: {fileID: 0}
  m_PrefabAsset: {fileID: 0}
  m_GameObject: {fileID: 6011805441610200909}
  m_Enabled: 1
  m_Avatar: {fileID: 9000000, guid: 71261e124ecaf834ea230db59ee16726, type: 3}
  m_Controller: {fileID: 9100000, guid: 8686cbcd605e16a4e9ae5a2c89039669, type: 2}
  m_CullingMode: 0
  m_UpdateMode: 0
  m_ApplyRootMotion: 0
  m_LinearVelocityBlending: 0
  m_WarningMessage: 
  m_HasTransformHierarchy: 1
  m_AllowConstantClipSamplingOptimization: 1
  m_KeepAnimatorControllerStateOnDisable: 0
--- !u!1001 &4502071956625676838
PrefabInstance:
  m_ObjectHideFlags: 0
  serializedVersion: 2
  m_Modification:
    m_TransformParent: {fileID: 0}
    m_Modifications:
    - target: {fileID: 7860095974945262888, guid: a7174b19722f0064f84cc37a932c6910, type: 3}
      propertyPath: m_Name
      value: Character
      objectReference: {fileID: 0}
    - target: {fileID: 7860095974945262902, guid: a7174b19722f0064f84cc37a932c6910, type: 3}
      propertyPath: m_RootOrder
      value: 0
      objectReference: {fileID: 0}
    - target: {fileID: 7860095974945262902, guid: a7174b19722f0064f84cc37a932c6910, type: 3}
      propertyPath: m_LocalPosition.x
      value: 0
      objectReference: {fileID: 0}
    - target: {fileID: 7860095974945262902, guid: a7174b19722f0064f84cc37a932c6910, type: 3}
      propertyPath: m_LocalPosition.y
      value: 0
      objectReference: {fileID: 0}
    - target: {fileID: 7860095974945262902, guid: a7174b19722f0064f84cc37a932c6910, type: 3}
      propertyPath: m_LocalPosition.z
      value: 0
      objectReference: {fileID: 0}
    - target: {fileID: 7860095974945262902, guid: a7174b19722f0064f84cc37a932c6910, type: 3}
      propertyPath: m_LocalRotation.w
      value: 1
      objectReference: {fileID: 0}
    - target: {fileID: 7860095974945262902, guid: a7174b19722f0064f84cc37a932c6910, type: 3}
      propertyPath: m_LocalRotation.x
      value: 0
      objectReference: {fileID: 0}
    - target: {fileID: 7860095974945262902, guid: a7174b19722f0064f84cc37a932c6910, type: 3}
      propertyPath: m_LocalRotation.y
      value: 0
      objectReference: {fileID: 0}
    - target: {fileID: 7860095974945262902, guid: a7174b19722f0064f84cc37a932c6910, type: 3}
      propertyPath: m_LocalRotation.z
      value: 0
      objectReference: {fileID: 0}
    - target: {fileID: 7860095974945262902, guid: a7174b19722f0064f84cc37a932c6910, type: 3}
      propertyPath: m_LocalEulerAnglesHint.x
      value: 0
      objectReference: {fileID: 0}
    - target: {fileID: 7860095974945262902, guid: a7174b19722f0064f84cc37a932c6910, type: 3}
      propertyPath: m_LocalEulerAnglesHint.y
      value: 0
      objectReference: {fileID: 0}
    - target: {fileID: 7860095974945262902, guid: a7174b19722f0064f84cc37a932c6910, type: 3}
      propertyPath: m_LocalEulerAnglesHint.z
      value: 0
      objectReference: {fileID: 0}
    - target: {fileID: 7860095975128591720, guid: a7174b19722f0064f84cc37a932c6910, type: 3}
      propertyPath: m_LocalPosition.y
      value: -1.2
      objectReference: {fileID: 0}
    - target: {fileID: 7860095975128591720, guid: a7174b19722f0064f84cc37a932c6910, type: 3}
      propertyPath: m_LocalRotation.w
      value: 1
      objectReference: {fileID: 0}
    - target: {fileID: 7860095975128591720, guid: a7174b19722f0064f84cc37a932c6910, type: 3}
      propertyPath: m_LocalRotation.y
      value: 0
      objectReference: {fileID: 0}
    - target: {fileID: 7860095975128591720, guid: a7174b19722f0064f84cc37a932c6910, type: 3}
      propertyPath: m_LocalEulerAnglesHint.y
      value: 0
      objectReference: {fileID: 0}
    m_RemovedComponents:
    - {fileID: 7860095975128591721, guid: a7174b19722f0064f84cc37a932c6910, type: 3}
    - {fileID: 7860095975128591734, guid: a7174b19722f0064f84cc37a932c6910, type: 3}
  m_SourcePrefab: {fileID: 100100000, guid: a7174b19722f0064f84cc37a932c6910, type: 3}
--- !u!4 &6011805441258739472 stripped
Transform:
  m_CorrespondingSourceObject: {fileID: 7860095974945262902, guid: a7174b19722f0064f84cc37a932c6910, type: 3}
  m_PrefabInstance: {fileID: 4502071956625676838}
  m_PrefabAsset: {fileID: 0}
--- !u!1 &6011805441610200909 stripped
GameObject:
  m_CorrespondingSourceObject: {fileID: 7860095975128591723, guid: a7174b19722f0064f84cc37a932c6910, type: 3}
  m_PrefabInstance: {fileID: 4502071956625676838}
  m_PrefabAsset: {fileID: 0}
--- !u!1001 &5384216245307812332
PrefabInstance:
  m_ObjectHideFlags: 0
  serializedVersion: 2
  m_Modification:
    m_TransformParent: {fileID: 6011805441258739472}
    m_Modifications:
    - target: {fileID: 2289963331531013345, guid: 9546b70b1210dfc4dab3172fd3e0fcf9, type: 3}
      propertyPath: m_Name
      value: GroundChecker
      objectReference: {fileID: 0}
    - target: {fileID: 2401863611223636724, guid: 9546b70b1210dfc4dab3172fd3e0fcf9, type: 3}
      propertyPath: m_RootOrder
      value: 1
      objectReference: {fileID: 0}
    - target: {fileID: 2401863611223636724, guid: 9546b70b1210dfc4dab3172fd3e0fcf9, type: 3}
      propertyPath: m_LocalPosition.x
      value: 0
      objectReference: {fileID: 0}
    - target: {fileID: 2401863611223636724, guid: 9546b70b1210dfc4dab3172fd3e0fcf9, type: 3}
      propertyPath: m_LocalPosition.y
      value: -0.723
      objectReference: {fileID: 0}
    - target: {fileID: 2401863611223636724, guid: 9546b70b1210dfc4dab3172fd3e0fcf9, type: 3}
      propertyPath: m_LocalPosition.z
      value: 0
      objectReference: {fileID: 0}
    - target: {fileID: 2401863611223636724, guid: 9546b70b1210dfc4dab3172fd3e0fcf9, type: 3}
      propertyPath: m_LocalRotation.w
      value: 1
      objectReference: {fileID: 0}
    - target: {fileID: 2401863611223636724, guid: 9546b70b1210dfc4dab3172fd3e0fcf9, type: 3}
      propertyPath: m_LocalRotation.x
      value: 0
      objectReference: {fileID: 0}
    - target: {fileID: 2401863611223636724, guid: 9546b70b1210dfc4dab3172fd3e0fcf9, type: 3}
      propertyPath: m_LocalRotation.y
      value: 0
      objectReference: {fileID: 0}
    - target: {fileID: 2401863611223636724, guid: 9546b70b1210dfc4dab3172fd3e0fcf9, type: 3}
      propertyPath: m_LocalRotation.z
      value: 0
      objectReference: {fileID: 0}
    - target: {fileID: 2401863611223636724, guid: 9546b70b1210dfc4dab3172fd3e0fcf9, type: 3}
      propertyPath: m_LocalEulerAnglesHint.x
      value: 0
      objectReference: {fileID: 0}
    - target: {fileID: 2401863611223636724, guid: 9546b70b1210dfc4dab3172fd3e0fcf9, type: 3}
      propertyPath: m_LocalEulerAnglesHint.y
      value: 0
      objectReference: {fileID: 0}
    - target: {fileID: 2401863611223636724, guid: 9546b70b1210dfc4dab3172fd3e0fcf9, type: 3}
      propertyPath: m_LocalEulerAnglesHint.z
      value: 0
      objectReference: {fileID: 0}
    - target: {fileID: 4826131124038513956, guid: 9546b70b1210dfc4dab3172fd3e0fcf9, type: 3}
      propertyPath: m_Size.x
      value: 0.6711154
      objectReference: {fileID: 0}
    - target: {fileID: 4826131124038513956, guid: 9546b70b1210dfc4dab3172fd3e0fcf9, type: 3}
      propertyPath: m_Size.z
      value: 0.6711154
      objectReference: {fileID: 0}
    m_RemovedComponents: []
  m_SourcePrefab: {fileID: 100100000, guid: 9546b70b1210dfc4dab3172fd3e0fcf9, type: 3}
