%YAML 1.1
%TAG !u! tag:unity3d.com,2011:
--- !u!1001 &1423773218150787815
PrefabInstance:
  m_ObjectHideFlags: 0
  serializedVersion: 2
  m_Modification:
    m_TransformParent: {fileID: 2169177566184510487}
    m_Modifications:
    - target: {fileID: 1744007048361798883, guid: 24da14d3ecf2dfb41ae11b60b414bd2d, type: 3}
      propertyPath: m_Mesh
      value: 
      objectReference: {fileID: -2432090755550338912, guid: 0c003640b4a1dcd428320eada40ef1d8, type: 3}
    - target: {fileID: 3822229241887830191, guid: 24da14d3ecf2dfb41ae11b60b414bd2d, type: 3}
      propertyPath: m_Name
      value: PewPew
      objectReference: {fileID: 0}
    - target: {fileID: 4706706256825511770, guid: 24da14d3ecf2dfb41ae11b60b414bd2d, type: 3}
      propertyPath: projectile
      value: 
      objectReference: {fileID: 5557495858741382215, guid: a552aeba3141e8345b225cb19bf2d22f, type: 3}
    - target: {fileID: 4706706256825511770, guid: 24da14d3ecf2dfb41ae11b60b414bd2d, type: 3}
      propertyPath: isAutomatic
      value: 0
      objectReference: {fileID: 0}
    - target: {fileID: 7547354070039336383, guid: 24da14d3ecf2dfb41ae11b60b414bd2d, type: 3}
      propertyPath: m_Parameters.colorGradient.key0.b
      value: 0.31764707
      objectReference: {fileID: 0}
    - target: {fileID: 7547354070039336383, guid: 24da14d3ecf2dfb41ae11b60b414bd2d, type: 3}
      propertyPath: m_Parameters.colorGradient.key0.g
      value: 0.15294118
      objectReference: {fileID: 0}
    - target: {fileID: 7547354070039336383, guid: 24da14d3ecf2dfb41ae11b60b414bd2d, type: 3}
      propertyPath: m_Parameters.colorGradient.key0.r
      value: 0.29803923
      objectReference: {fileID: 0}
    - target: {fileID: 7547354070039336383, guid: 24da14d3ecf2dfb41ae11b60b414bd2d, type: 3}
      propertyPath: m_Parameters.colorGradient.key1.b
      value: 0.882353
      objectReference: {fileID: 0}
    - target: {fileID: 7547354070039336383, guid: 24da14d3ecf2dfb41ae11b60b414bd2d, type: 3}
      propertyPath: m_Parameters.colorGradient.key1.g
      value: 0.5137255
      objectReference: {fileID: 0}
    - target: {fileID: 7547354070039336383, guid: 24da14d3ecf2dfb41ae11b60b414bd2d, type: 3}
      propertyPath: m_Parameters.colorGradient.key1.r
      value: 0.8235295
      objectReference: {fileID: 0}
    - target: {fileID: 8029851739054489147, guid: 24da14d3ecf2dfb41ae11b60b414bd2d, type: 3}
      propertyPath: m_RootOrder
      value: 1
      objectReference: {fileID: 0}
    - target: {fileID: 8029851739054489147, guid: 24da14d3ecf2dfb41ae11b60b414bd2d, type: 3}
      propertyPath: m_LocalPosition.x
      value: 0
      objectReference: {fileID: 0}
    - target: {fileID: 8029851739054489147, guid: 24da14d3ecf2dfb41ae11b60b414bd2d, type: 3}
      propertyPath: m_LocalPosition.y
      value: 0
      objectReference: {fileID: 0}
    - target: {fileID: 8029851739054489147, guid: 24da14d3ecf2dfb41ae11b60b414bd2d, type: 3}
      propertyPath: m_LocalPosition.z
      value: 0
      objectReference: {fileID: 0}
    - target: {fileID: 8029851739054489147, guid: 24da14d3ecf2dfb41ae11b60b414bd2d, type: 3}
      propertyPath: m_LocalRotation.w
      value: 1
      objectReference: {fileID: 0}
    - target: {fileID: 8029851739054489147, guid: 24da14d3ecf2dfb41ae11b60b414bd2d, type: 3}
      propertyPath: m_LocalRotation.x
      value: 0
      objectReference: {fileID: 0}
    - target: {fileID: 8029851739054489147, guid: 24da14d3ecf2dfb41ae11b60b414bd2d, type: 3}
      propertyPath: m_LocalRotation.y
      value: 0
      objectReference: {fileID: 0}
    - target: {fileID: 8029851739054489147, guid: 24da14d3ecf2dfb41ae11b60b414bd2d, type: 3}
      propertyPath: m_LocalRotation.z
      value: 0
      objectReference: {fileID: 0}
    - target: {fileID: 8029851739054489147, guid: 24da14d3ecf2dfb41ae11b60b414bd2d, type: 3}
      propertyPath: m_LocalEulerAnglesHint.x
      value: 0
      objectReference: {fileID: 0}
    - target: {fileID: 8029851739054489147, guid: 24da14d3ecf2dfb41ae11b60b414bd2d, type: 3}
      propertyPath: m_LocalEulerAnglesHint.y
      value: 0
      objectReference: {fileID: 0}
    - target: {fileID: 8029851739054489147, guid: 24da14d3ecf2dfb41ae11b60b414bd2d, type: 3}
      propertyPath: m_LocalEulerAnglesHint.z
      value: 0
      objectReference: {fileID: 0}
    m_RemovedComponents: []
  m_SourcePrefab: {fileID: 100100000, guid: 24da14d3ecf2dfb41ae11b60b414bd2d, type: 3}
--- !u!1001 &2743417335622450150
PrefabInstance:
  m_ObjectHideFlags: 0
  serializedVersion: 2
  m_Modification:
    m_TransformParent: {fileID: 0}
    m_Modifications:
    - target: {fileID: 731323559425538763, guid: 5da0d3150352a774b959c78e2fe35b11, type: 3}
      propertyPath: m_Name
      value: PewPewer
      objectReference: {fileID: 0}
    - target: {fileID: 731323559425538773, guid: 5da0d3150352a774b959c78e2fe35b11, type: 3}
      propertyPath: m_RootOrder
      value: 0
      objectReference: {fileID: 0}
    - target: {fileID: 731323559425538773, guid: 5da0d3150352a774b959c78e2fe35b11, type: 3}
      propertyPath: m_LocalPosition.x
      value: 0
      objectReference: {fileID: 0}
    - target: {fileID: 731323559425538773, guid: 5da0d3150352a774b959c78e2fe35b11, type: 3}
      propertyPath: m_LocalPosition.y
      value: 0
      objectReference: {fileID: 0}
    - target: {fileID: 731323559425538773, guid: 5da0d3150352a774b959c78e2fe35b11, type: 3}
      propertyPath: m_LocalPosition.z
      value: 0
      objectReference: {fileID: 0}
    - target: {fileID: 731323559425538773, guid: 5da0d3150352a774b959c78e2fe35b11, type: 3}
      propertyPath: m_LocalRotation.w
      value: 1
      objectReference: {fileID: 0}
    - target: {fileID: 731323559425538773, guid: 5da0d3150352a774b959c78e2fe35b11, type: 3}
      propertyPath: m_LocalRotation.x
      value: 0
      objectReference: {fileID: 0}
    - target: {fileID: 731323559425538773, guid: 5da0d3150352a774b959c78e2fe35b11, type: 3}
      propertyPath: m_LocalRotation.y
      value: 0
      objectReference: {fileID: 0}
    - target: {fileID: 731323559425538773, guid: 5da0d3150352a774b959c78e2fe35b11, type: 3}
      propertyPath: m_LocalRotation.z
      value: 0
      objectReference: {fileID: 0}
    - target: {fileID: 731323559425538773, guid: 5da0d3150352a774b959c78e2fe35b11, type: 3}
      propertyPath: m_LocalEulerAnglesHint.x
      value: 0
      objectReference: {fileID: 0}
    - target: {fileID: 731323559425538773, guid: 5da0d3150352a774b959c78e2fe35b11, type: 3}
      propertyPath: m_LocalEulerAnglesHint.y
      value: 0
      objectReference: {fileID: 0}
    - target: {fileID: 731323559425538773, guid: 5da0d3150352a774b959c78e2fe35b11, type: 3}
      propertyPath: m_LocalEulerAnglesHint.z
      value: 0
      objectReference: {fileID: 0}
    - target: {fileID: 1191983725433829077, guid: 5da0d3150352a774b959c78e2fe35b11, type: 3}
      propertyPath: maxHealth
      value: 5
      objectReference: {fileID: 0}
    - target: {fileID: 1191983725433829077, guid: 5da0d3150352a774b959c78e2fe35b11, type: 3}
      propertyPath: _maxHealth
      value: 10
      objectReference: {fileID: 0}
    - target: {fileID: 1191983725433829077, guid: 5da0d3150352a774b959c78e2fe35b11, type: 3}
      propertyPath: normalRoam
      value: 
      objectReference: {fileID: 11400000, guid: af71914434b0fc7418f456d92a107dd6, type: 2}
    - target: {fileID: 1191983725433829077, guid: 5da0d3150352a774b959c78e2fe35b11, type: 3}
      propertyPath: shootClosest
      value: 
      objectReference: {fileID: 11400000, guid: 4886d12e745e4da43a045d9b8dd34e3a, type: 2}
    - target: {fileID: 1191983725433829077, guid: 5da0d3150352a774b959c78e2fe35b11, type: 3}
      propertyPath: agressiveRoam
      value: 
      objectReference: {fileID: 11400000, guid: af71914434b0fc7418f456d92a107dd6, type: 2}
    - target: {fileID: 1191983725433829077, guid: 5da0d3150352a774b959c78e2fe35b11, type: 3}
      propertyPath: senseFrequency
      value: 1
      objectReference: {fileID: 0}
    - target: {fileID: 1191983725433829077, guid: 5da0d3150352a774b959c78e2fe35b11, type: 3}
      propertyPath: chaseEnemyOnSeen
      value: 0
      objectReference: {fileID: 0}
    - target: {fileID: 1191983725433829077, guid: 5da0d3150352a774b959c78e2fe35b11, type: 3}
      propertyPath: gravityWhenAiming
      value: 
      objectReference: {fileID: 11400000, guid: 720a76d2b7e309c47a8bb9fbd417b423, type: 2}
    - target: {fileID: 1732118908868213764, guid: 5da0d3150352a774b959c78e2fe35b11, type: 3}
      propertyPath: speed
      value: 8
      objectReference: {fileID: 0}
    - target: {fileID: 1732118908868213764, guid: 5da0d3150352a774b959c78e2fe35b11, type: 3}
      propertyPath: roamStopTime.max
      value: 3
      objectReference: {fileID: 0}
    - target: {fileID: 1732118908868213764, guid: 5da0d3150352a774b959c78e2fe35b11, type: 3}
      propertyPath: roamStopTime.min
      value: 1
      objectReference: {fileID: 0}
    - target: {fileID: 1732118908868213764, guid: 5da0d3150352a774b959c78e2fe35b11, type: 3}
      propertyPath: shootFrequency.max
      value: 2
      objectReference: {fileID: 0}
    - target: {fileID: 1732118908868213764, guid: 5da0d3150352a774b959c78e2fe35b11, type: 3}
      propertyPath: shootFrequency.min
      value: 1
      objectReference: {fileID: 0}
    - target: {fileID: 1732118908868213764, guid: 5da0d3150352a774b959c78e2fe35b11, type: 3}
      propertyPath: reloadFrequency.max
      value: 4
      objectReference: {fileID: 0}
    - target: {fileID: 1732118908868213764, guid: 5da0d3150352a774b959c78e2fe35b11, type: 3}
      propertyPath: reloadFrequency.min
      value: 3
      objectReference: {fileID: 0}
    - target: {fileID: 1732118908868213764, guid: 5da0d3150352a774b959c78e2fe35b11, type: 3}
      propertyPath: roamStopFrequency.max
      value: 4
      objectReference: {fileID: 0}
    - target: {fileID: 1732118908868213764, guid: 5da0d3150352a774b959c78e2fe35b11, type: 3}
      propertyPath: roamStopFrequency.min
      value: 3
      objectReference: {fileID: 0}
    - target: {fileID: 1732118908868213764, guid: 5da0d3150352a774b959c78e2fe35b11, type: 3}
      propertyPath: senseEnemyFrequency.max
      value: 2
      objectReference: {fileID: 0}
    - target: {fileID: 1732118908868213764, guid: 5da0d3150352a774b959c78e2fe35b11, type: 3}
      propertyPath: senseEnemyFrequency.min
      value: 1
      objectReference: {fileID: 0}
    - target: {fileID: 3718323136805049546, guid: 5da0d3150352a774b959c78e2fe35b11, type: 3}
      propertyPath: m_RootOrder
      value: 0
      objectReference: {fileID: 0}
    - target: {fileID: 4490116552210807991, guid: 5da0d3150352a774b959c78e2fe35b11, type: 3}
      propertyPath: drops.Array.data[3]._object
      value: 
      objectReference: {fileID: 1613198021947963204, guid: 22f439ff552e8e94b979f137519438c5, type: 3}
    - target: {fileID: 4490116552210807991, guid: 5da0d3150352a774b959c78e2fe35b11, type: 3}
      propertyPath: drops.Array.data[0].chanceMax
      value: 0.1
      objectReference: {fileID: 0}
    m_RemovedComponents: []
  m_SourcePrefab: {fileID: 100100000, guid: 5da0d3150352a774b959c78e2fe35b11, type: 3}
--- !u!4 &2169177566184510487 stripped
Transform:
  m_CorrespondingSourceObject: {fileID: 4037727793230917617, guid: 5da0d3150352a774b959c78e2fe35b11, type: 3}
  m_PrefabInstance: {fileID: 2743417335622450150}
  m_PrefabAsset: {fileID: 0}
