%YAML 1.1
%TAG !u! tag:unity3d.com,2011:
--- !u!1 &6179441055108154434
GameObject:
  m_ObjectHideFlags: 0
  m_CorrespondingSourceObject: {fileID: 0}
  m_PrefabInstance: {fileID: 0}
  m_PrefabAsset: {fileID: 0}
  serializedVersion: 6
  m_Component:
  - component: {fileID: 111006938403586827}
  m_Layer: 0
  m_Name: Source
  m_TagString: Untagged
  m_Icon: {fileID: 0}
  m_NavMeshLayer: 0
  m_StaticEditorFlags: 0
  m_IsActive: 1
--- !u!4 &111006938403586827
Transform:
  m_ObjectHideFlags: 0
  m_CorrespondingSourceObject: {fileID: 0}
  m_PrefabInstance: {fileID: 0}
  m_PrefabAsset: {fileID: 0}
  m_GameObject: {fileID: 6179441055108154434}
  m_LocalRotation: {x: 0.104606315, y: -0, z: -0, w: 0.99451375}
  m_LocalPosition: {x: -0.21, y: 0.1, z: -0.539}
  m_LocalScale: {x: 1, y: 1, z: 1}
  m_Children: []
  m_Father: {fileID: 3951732429673749194}
  m_RootOrder: 1
  m_LocalEulerAnglesHint: {x: 12.009, y: 0, z: 0}
--- !u!1001 &1918018365222142371
PrefabInstance:
  m_ObjectHideFlags: 0
  serializedVersion: 2
  m_Modification:
    m_TransformParent: {fileID: 0}
    m_Modifications:
    - target: {fileID: 274260094976200528, guid: d12baf781a7bdd3438529e60f3c5b21a, type: 3}
      propertyPath: bullets
      value: 1
      objectReference: {fileID: 0}
    - target: {fileID: 274260094976200528, guid: d12baf781a7bdd3438529e60f3c5b21a, type: 3}
      propertyPath: cooldown
      value: 1
      objectReference: {fileID: 0}
    - target: {fileID: 274260094976200528, guid: d12baf781a7bdd3438529e60f3c5b21a, type: 3}
      propertyPath: projectile
      value: 
      objectReference: {fileID: 3191134714337361552, guid: 4d960a60d7d293a449957320f12b2916, type: 3}
    - target: {fileID: 274260094976200528, guid: d12baf781a7bdd3438529e60f3c5b21a, type: 3}
      propertyPath: reloadTime
      value: 1
      objectReference: {fileID: 0}
    - target: {fileID: 274260094976200528, guid: d12baf781a7bdd3438529e60f3c5b21a, type: 3}
      propertyPath: automaticReload
      value: 1
      objectReference: {fileID: 0}
    - target: {fileID: 274260094976200528, guid: d12baf781a7bdd3438529e60f3c5b21a, type: 3}
      propertyPath: freezeOwnerWhenReloading
      value: 1
      objectReference: {fileID: 0}
    - target: {fileID: 3036091315665597877, guid: d12baf781a7bdd3438529e60f3c5b21a, type: 3}
      propertyPath: m_Parameters.numCapVertices
      value: 5
      objectReference: {fileID: 0}
    - target: {fileID: 3036091315665597877, guid: d12baf781a7bdd3438529e60f3c5b21a, type: 3}
      propertyPath: m_Parameters.widthMultiplier
      value: 1
      objectReference: {fileID: 0}
    - target: {fileID: 3036091315665597877, guid: d12baf781a7bdd3438529e60f3c5b21a, type: 3}
      propertyPath: m_Parameters.colorGradient.key0.b
      value: 0.5568628
      objectReference: {fileID: 0}
    - target: {fileID: 3036091315665597877, guid: d12baf781a7bdd3438529e60f3c5b21a, type: 3}
      propertyPath: m_Parameters.colorGradient.key0.g
      value: 0.34117648
      objectReference: {fileID: 0}
    - target: {fileID: 3036091315665597877, guid: d12baf781a7bdd3438529e60f3c5b21a, type: 3}
      propertyPath: m_Parameters.colorGradient.key0.r
      value: 0.24313727
      objectReference: {fileID: 0}
    - target: {fileID: 3036091315665597877, guid: d12baf781a7bdd3438529e60f3c5b21a, type: 3}
      propertyPath: m_Parameters.colorGradient.key1.a
      value: 0
      objectReference: {fileID: 0}
    - target: {fileID: 3036091315665597877, guid: d12baf781a7bdd3438529e60f3c5b21a, type: 3}
      propertyPath: m_Parameters.colorGradient.key1.b
      value: 0.8941177
      objectReference: {fileID: 0}
    - target: {fileID: 3036091315665597877, guid: d12baf781a7bdd3438529e60f3c5b21a, type: 3}
      propertyPath: m_Parameters.colorGradient.key1.g
      value: 0.52156866
      objectReference: {fileID: 0}
    - target: {fileID: 3036091315665597877, guid: d12baf781a7bdd3438529e60f3c5b21a, type: 3}
      propertyPath: m_Parameters.colorGradient.key1.r
      value: 0.47058827
      objectReference: {fileID: 0}
    - target: {fileID: 3036091315665597877, guid: d12baf781a7bdd3438529e60f3c5b21a, type: 3}
      propertyPath: m_Parameters.widthCurve.m_Curve.Array.size
      value: 3
      objectReference: {fileID: 0}
    - target: {fileID: 3036091315665597877, guid: d12baf781a7bdd3438529e60f3c5b21a, type: 3}
      propertyPath: m_Parameters.widthCurve.m_Curve.Array.data[0].time
      value: 0
      objectReference: {fileID: 0}
    - target: {fileID: 3036091315665597877, guid: d12baf781a7bdd3438529e60f3c5b21a, type: 3}
      propertyPath: m_Parameters.widthCurve.m_Curve.Array.data[1].time
      value: 0.8164179
      objectReference: {fileID: 0}
    - target: {fileID: 3036091315665597877, guid: d12baf781a7bdd3438529e60f3c5b21a, type: 3}
      propertyPath: m_Parameters.widthCurve.m_Curve.Array.data[2].time
      value: 1
      objectReference: {fileID: 0}
    - target: {fileID: 3036091315665597877, guid: d12baf781a7bdd3438529e60f3c5b21a, type: 3}
      propertyPath: m_Parameters.widthCurve.m_Curve.Array.data[0].value
      value: 0.5
      objectReference: {fileID: 0}
    - target: {fileID: 3036091315665597877, guid: d12baf781a7bdd3438529e60f3c5b21a, type: 3}
      propertyPath: m_Parameters.widthCurve.m_Curve.Array.data[1].value
      value: 1
      objectReference: {fileID: 0}
    - target: {fileID: 3036091315665597877, guid: d12baf781a7bdd3438529e60f3c5b21a, type: 3}
      propertyPath: m_Parameters.widthCurve.m_Curve.Array.data[2].value
      value: 0.8500004
      objectReference: {fileID: 0}
    - target: {fileID: 3036091315665597877, guid: d12baf781a7bdd3438529e60f3c5b21a, type: 3}
      propertyPath: m_Parameters.widthCurve.m_Curve.Array.data[1].inSlope
      value: 0.4546531
      objectReference: {fileID: 0}
    - target: {fileID: 3036091315665597877, guid: d12baf781a7bdd3438529e60f3c5b21a, type: 3}
      propertyPath: m_Parameters.widthCurve.m_Curve.Array.data[2].inSlope
      value: -2.3548226
      objectReference: {fileID: 0}
    - target: {fileID: 3036091315665597877, guid: d12baf781a7bdd3438529e60f3c5b21a, type: 3}
      propertyPath: m_Parameters.widthCurve.m_Curve.Array.data[1].inWeight
      value: 0.33333334
      objectReference: {fileID: 0}
    - target: {fileID: 3036091315665597877, guid: d12baf781a7bdd3438529e60f3c5b21a, type: 3}
      propertyPath: m_Parameters.widthCurve.m_Curve.Array.data[1].outSlope
      value: 0.4546531
      objectReference: {fileID: 0}
    - target: {fileID: 3036091315665597877, guid: d12baf781a7bdd3438529e60f3c5b21a, type: 3}
      propertyPath: m_Parameters.widthCurve.m_Curve.Array.data[2].inWeight
      value: 0.6278649
      objectReference: {fileID: 0}
    - target: {fileID: 3036091315665597877, guid: d12baf781a7bdd3438529e60f3c5b21a, type: 3}
      propertyPath: m_Parameters.widthCurve.m_Curve.Array.data[2].outSlope
      value: -2.3548226
      objectReference: {fileID: 0}
    - target: {fileID: 3036091315665597877, guid: d12baf781a7bdd3438529e60f3c5b21a, type: 3}
      propertyPath: m_Parameters.widthCurve.m_Curve.Array.data[1].outWeight
      value: 0.33333334
      objectReference: {fileID: 0}
    - target: {fileID: 3310156592053968433, guid: d12baf781a7bdd3438529e60f3c5b21a, type: 3}
      propertyPath: m_RootOrder
      value: 0
      objectReference: {fileID: 0}
    - target: {fileID: 3310156592053968433, guid: d12baf781a7bdd3438529e60f3c5b21a, type: 3}
      propertyPath: m_LocalPosition.x
      value: 0
      objectReference: {fileID: 0}
    - target: {fileID: 3310156592053968433, guid: d12baf781a7bdd3438529e60f3c5b21a, type: 3}
      propertyPath: m_LocalPosition.y
      value: 0
      objectReference: {fileID: 0}
    - target: {fileID: 3310156592053968433, guid: d12baf781a7bdd3438529e60f3c5b21a, type: 3}
      propertyPath: m_LocalPosition.z
      value: 0
      objectReference: {fileID: 0}
    - target: {fileID: 3310156592053968433, guid: d12baf781a7bdd3438529e60f3c5b21a, type: 3}
      propertyPath: m_LocalRotation.w
      value: 0.7071068
      objectReference: {fileID: 0}
    - target: {fileID: 3310156592053968433, guid: d12baf781a7bdd3438529e60f3c5b21a, type: 3}
      propertyPath: m_LocalRotation.x
      value: 0.7071068
      objectReference: {fileID: 0}
    - target: {fileID: 3310156592053968433, guid: d12baf781a7bdd3438529e60f3c5b21a, type: 3}
      propertyPath: m_LocalRotation.y
      value: 0
      objectReference: {fileID: 0}
    - target: {fileID: 3310156592053968433, guid: d12baf781a7bdd3438529e60f3c5b21a, type: 3}
      propertyPath: m_LocalRotation.z
      value: 0
      objectReference: {fileID: 0}
    - target: {fileID: 3310156592053968433, guid: d12baf781a7bdd3438529e60f3c5b21a, type: 3}
      propertyPath: m_LocalEulerAnglesHint.x
      value: 90
      objectReference: {fileID: 0}
    - target: {fileID: 3310156592053968433, guid: d12baf781a7bdd3438529e60f3c5b21a, type: 3}
      propertyPath: m_LocalEulerAnglesHint.y
      value: 0
      objectReference: {fileID: 0}
    - target: {fileID: 3310156592053968433, guid: d12baf781a7bdd3438529e60f3c5b21a, type: 3}
      propertyPath: m_LocalEulerAnglesHint.z
      value: 0
      objectReference: {fileID: 0}
    - target: {fileID: 8616656313570283685, guid: d12baf781a7bdd3438529e60f3c5b21a, type: 3}
      propertyPath: m_Name
      value: SoundBlaster
      objectReference: {fileID: 0}
    m_RemovedComponents: []
  m_SourcePrefab: {fileID: 100100000, guid: d12baf781a7bdd3438529e60f3c5b21a, type: 3}
--- !u!4 &3951732429673749194 stripped
Transform:
  m_CorrespondingSourceObject: {fileID: 3191209627679562601, guid: d12baf781a7bdd3438529e60f3c5b21a, type: 3}
  m_PrefabInstance: {fileID: 1918018365222142371}
  m_PrefabAsset: {fileID: 0}
--- !u!1001 &8011474259767153983
PrefabInstance:
  m_ObjectHideFlags: 0
  serializedVersion: 2
  m_Modification:
    m_TransformParent: {fileID: 3951732429673749194}
    m_Modifications:
    - target: {fileID: -8679921383154817045, guid: d872710cf8cf7fd4fba409982b52382b, type: 3}
      propertyPath: m_RootOrder
      value: 0
      objectReference: {fileID: 0}
    - target: {fileID: -8679921383154817045, guid: d872710cf8cf7fd4fba409982b52382b, type: 3}
      propertyPath: m_LocalScale.x
      value: -1
      objectReference: {fileID: 0}
    - target: {fileID: -8679921383154817045, guid: d872710cf8cf7fd4fba409982b52382b, type: 3}
      propertyPath: m_LocalPosition.x
      value: -0
      objectReference: {fileID: 0}
    - target: {fileID: -8679921383154817045, guid: d872710cf8cf7fd4fba409982b52382b, type: 3}
      propertyPath: m_LocalPosition.y
      value: 0
      objectReference: {fileID: 0}
    - target: {fileID: -8679921383154817045, guid: d872710cf8cf7fd4fba409982b52382b, type: 3}
      propertyPath: m_LocalPosition.z
      value: 0
      objectReference: {fileID: 0}
    - target: {fileID: -8679921383154817045, guid: d872710cf8cf7fd4fba409982b52382b, type: 3}
      propertyPath: m_LocalRotation.w
      value: 0.58912593
      objectReference: {fileID: 0}
    - target: {fileID: -8679921383154817045, guid: d872710cf8cf7fd4fba409982b52382b, type: 3}
      propertyPath: m_LocalRotation.x
      value: 0.8080412
      objectReference: {fileID: 0}
    - target: {fileID: -8679921383154817045, guid: d872710cf8cf7fd4fba409982b52382b, type: 3}
      propertyPath: m_LocalRotation.y
      value: 0
      objectReference: {fileID: 0}
    - target: {fileID: -8679921383154817045, guid: d872710cf8cf7fd4fba409982b52382b, type: 3}
      propertyPath: m_LocalRotation.z
      value: 0
      objectReference: {fileID: 0}
    - target: {fileID: -8679921383154817045, guid: d872710cf8cf7fd4fba409982b52382b, type: 3}
      propertyPath: m_LocalEulerAnglesHint.x
      value: 107.81
      objectReference: {fileID: 0}
    - target: {fileID: -8679921383154817045, guid: d872710cf8cf7fd4fba409982b52382b, type: 3}
      propertyPath: m_LocalEulerAnglesHint.y
      value: 0
      objectReference: {fileID: 0}
    - target: {fileID: -8679921383154817045, guid: d872710cf8cf7fd4fba409982b52382b, type: 3}
      propertyPath: m_LocalEulerAnglesHint.z
      value: 0
      objectReference: {fileID: 0}
    - target: {fileID: -7635826562936255635, guid: d872710cf8cf7fd4fba409982b52382b, type: 3}
      propertyPath: m_Materials.Array.data[0]
      value: 
      objectReference: {fileID: 2100000, guid: 9833adad4004ab44d9e818610fdf6808, type: 2}
    - target: {fileID: 919132149155446097, guid: d872710cf8cf7fd4fba409982b52382b, type: 3}
      propertyPath: m_Name
      value: SoundBlaster
      objectReference: {fileID: 0}
    m_RemovedComponents: []
  m_SourcePrefab: {fileID: 100100000, guid: d872710cf8cf7fd4fba409982b52382b, type: 3}
