%YAML 1.1
%TAG !u! tag:unity3d.com,2011:
--- !u!1 &8612452835370217560
GameObject:
  m_ObjectHideFlags: 0
  m_CorrespondingSourceObject: {fileID: 0}
  m_PrefabInstance: {fileID: 0}
  m_PrefabAsset: {fileID: 0}
  serializedVersion: 6
  m_Component:
  - component: {fileID: 937341593144043422}
  m_Layer: 0
  m_Name: Source
  m_TagString: Untagged
  m_Icon: {fileID: 0}
  m_NavMeshLayer: 0
  m_StaticEditorFlags: 0
  m_IsActive: 1
--- !u!4 &937341593144043422
Transform:
  m_ObjectHideFlags: 0
  m_CorrespondingSourceObject: {fileID: 0}
  m_PrefabInstance: {fileID: 0}
  m_PrefabAsset: {fileID: 0}
  m_GameObject: {fileID: 8612452835370217560}
  m_LocalRotation: {x: 0, y: 0, z: 0, w: 1}
  m_LocalPosition: {x: 0, y: 0, z: -0.689}
  m_LocalScale: {x: 1, y: 1, z: 1}
  m_Children: []
  m_Father: {fileID: 6716010788392264362}
  m_RootOrder: 1
  m_LocalEulerAnglesHint: {x: 0, y: 0, z: 0}
--- !u!1001 &6538849834927910899
PrefabInstance:
  m_ObjectHideFlags: 0
  serializedVersion: 2
  m_Modification:
    m_TransformParent: {fileID: 0}
    m_Modifications:
    - target: {fileID: 274260094976200528, guid: d12baf781a7bdd3438529e60f3c5b21a, type: 3}
      propertyPath: _slot
      value: 0
      objectReference: {fileID: 0}
    - target: {fileID: 274260094976200528, guid: d12baf781a7bdd3438529e60f3c5b21a, type: 3}
      propertyPath: _source
      value: 
      objectReference: {fileID: 937341593144043422}
    - target: {fileID: 274260094976200528, guid: d12baf781a7bdd3438529e60f3c5b21a, type: 3}
      propertyPath: cooldown
      value: 1
      objectReference: {fileID: 0}
    - target: {fileID: 274260094976200528, guid: d12baf781a7bdd3438529e60f3c5b21a, type: 3}
      propertyPath: projectile
      value: 
      objectReference: {fileID: 699823771165728423, guid: 30da02feea7ca1d47adf6404a73414bf, type: 3}
    - target: {fileID: 274260094976200528, guid: d12baf781a7bdd3438529e60f3c5b21a, type: 3}
      propertyPath: isAutomatic
      value: 1
      objectReference: {fileID: 0}
    - target: {fileID: 274260094976200528, guid: d12baf781a7bdd3438529e60f3c5b21a, type: 3}
      propertyPath: infiniteBullet
      value: 1
      objectReference: {fileID: 0}
    - target: {fileID: 2254543243229696835, guid: d12baf781a7bdd3438529e60f3c5b21a, type: 3}
      propertyPath: _maxDistance
      value: 2
      objectReference: {fileID: 0}
    - target: {fileID: 3036091315665597877, guid: d12baf781a7bdd3438529e60f3c5b21a, type: 3}
      propertyPath: m_Parameters.widthMultiplier
      value: 1
      objectReference: {fileID: 0}
    - target: {fileID: 3036091315665597877, guid: d12baf781a7bdd3438529e60f3c5b21a, type: 3}
      propertyPath: m_Parameters.colorGradient.key0.b
      value: 0.454902
      objectReference: {fileID: 0}
    - target: {fileID: 3036091315665597877, guid: d12baf781a7bdd3438529e60f3c5b21a, type: 3}
      propertyPath: m_Parameters.colorGradient.key0.g
      value: 0.28627452
      objectReference: {fileID: 0}
    - target: {fileID: 3036091315665597877, guid: d12baf781a7bdd3438529e60f3c5b21a, type: 3}
      propertyPath: m_Parameters.colorGradient.key0.r
      value: 0.1764706
      objectReference: {fileID: 0}
    - target: {fileID: 3036091315665597877, guid: d12baf781a7bdd3438529e60f3c5b21a, type: 3}
      propertyPath: m_Parameters.colorGradient.key1.a
      value: 0
      objectReference: {fileID: 0}
    - target: {fileID: 3036091315665597877, guid: d12baf781a7bdd3438529e60f3c5b21a, type: 3}
      propertyPath: m_Parameters.colorGradient.key1.b
      value: 0.9176471
      objectReference: {fileID: 0}
    - target: {fileID: 3036091315665597877, guid: d12baf781a7bdd3438529e60f3c5b21a, type: 3}
      propertyPath: m_Parameters.colorGradient.key1.g
      value: 0.5372549
      objectReference: {fileID: 0}
    - target: {fileID: 3036091315665597877, guid: d12baf781a7bdd3438529e60f3c5b21a, type: 3}
      propertyPath: m_Parameters.colorGradient.key1.r
      value: 0.4901961
      objectReference: {fileID: 0}
    - target: {fileID: 3036091315665597877, guid: d12baf781a7bdd3438529e60f3c5b21a, type: 3}
      propertyPath: m_Parameters.widthCurve.m_Curve.Array.size
      value: 2
      objectReference: {fileID: 0}
    - target: {fileID: 3036091315665597877, guid: d12baf781a7bdd3438529e60f3c5b21a, type: 3}
      propertyPath: m_Parameters.widthCurve.m_Curve.Array.data[1].time
      value: 1
      objectReference: {fileID: 0}
    - target: {fileID: 3036091315665597877, guid: d12baf781a7bdd3438529e60f3c5b21a, type: 3}
      propertyPath: m_Parameters.widthCurve.m_Curve.Array.data[0].value
      value: 0.7539253
      objectReference: {fileID: 0}
    - target: {fileID: 3036091315665597877, guid: d12baf781a7bdd3438529e60f3c5b21a, type: 3}
      propertyPath: m_Parameters.widthCurve.m_Curve.Array.data[1].value
      value: 1
      objectReference: {fileID: 0}
    - target: {fileID: 3310156592053968433, guid: d12baf781a7bdd3438529e60f3c5b21a, type: 3}
      propertyPath: m_RootOrder
      value: 0
      objectReference: {fileID: 0}
    - target: {fileID: 3310156592053968433, guid: d12baf781a7bdd3438529e60f3c5b21a, type: 3}
      propertyPath: m_LocalPosition.x
      value: 0
      objectReference: {fileID: 0}
    - target: {fileID: 3310156592053968433, guid: d12baf781a7bdd3438529e60f3c5b21a, type: 3}
      propertyPath: m_LocalPosition.y
      value: 0
      objectReference: {fileID: 0}
    - target: {fileID: 3310156592053968433, guid: d12baf781a7bdd3438529e60f3c5b21a, type: 3}
      propertyPath: m_LocalPosition.z
      value: 0
      objectReference: {fileID: 0}
    - target: {fileID: 3310156592053968433, guid: d12baf781a7bdd3438529e60f3c5b21a, type: 3}
      propertyPath: m_LocalRotation.w
      value: 1
      objectReference: {fileID: 0}
    - target: {fileID: 3310156592053968433, guid: d12baf781a7bdd3438529e60f3c5b21a, type: 3}
      propertyPath: m_LocalRotation.x
      value: -0
      objectReference: {fileID: 0}
    - target: {fileID: 3310156592053968433, guid: d12baf781a7bdd3438529e60f3c5b21a, type: 3}
      propertyPath: m_LocalRotation.y
      value: -0
      objectReference: {fileID: 0}
    - target: {fileID: 3310156592053968433, guid: d12baf781a7bdd3438529e60f3c5b21a, type: 3}
      propertyPath: m_LocalRotation.z
      value: -0
      objectReference: {fileID: 0}
    - target: {fileID: 3310156592053968433, guid: d12baf781a7bdd3438529e60f3c5b21a, type: 3}
      propertyPath: m_LocalEulerAnglesHint.x
      value: 0
      objectReference: {fileID: 0}
    - target: {fileID: 3310156592053968433, guid: d12baf781a7bdd3438529e60f3c5b21a, type: 3}
      propertyPath: m_LocalEulerAnglesHint.y
      value: 0
      objectReference: {fileID: 0}
    - target: {fileID: 3310156592053968433, guid: d12baf781a7bdd3438529e60f3c5b21a, type: 3}
      propertyPath: m_LocalEulerAnglesHint.z
      value: 0
      objectReference: {fileID: 0}
    - target: {fileID: 8616656313570283685, guid: d12baf781a7bdd3438529e60f3c5b21a, type: 3}
      propertyPath: m_Name
      value: Rocketeer
      objectReference: {fileID: 0}
    m_RemovedComponents: []
  m_SourcePrefab: {fileID: 100100000, guid: d12baf781a7bdd3438529e60f3c5b21a, type: 3}
--- !u!4 &8572563925199647898 stripped
Transform:
  m_CorrespondingSourceObject: {fileID: 3191209627679562601, guid: d12baf781a7bdd3438529e60f3c5b21a, type: 3}
  m_PrefabInstance: {fileID: 6538849834927910899}
  m_PrefabAsset: {fileID: 0}
--- !u!1001 &6538849835078026561
PrefabInstance:
  m_ObjectHideFlags: 0
  serializedVersion: 2
  m_Modification:
    m_TransformParent: {fileID: 8572563925199647898}
    m_Modifications:
    - target: {fileID: -8679921383154817045, guid: 0728ee92d70c41042854e1610ea253d7, type: 3}
      propertyPath: m_RootOrder
      value: 0
      objectReference: {fileID: 0}
    - target: {fileID: -8679921383154817045, guid: 0728ee92d70c41042854e1610ea253d7, type: 3}
      propertyPath: m_LocalScale.x
      value: -1
      objectReference: {fileID: 0}
    - target: {fileID: -8679921383154817045, guid: 0728ee92d70c41042854e1610ea253d7, type: 3}
      propertyPath: m_LocalPosition.x
      value: -0
      objectReference: {fileID: 0}
    - target: {fileID: -8679921383154817045, guid: 0728ee92d70c41042854e1610ea253d7, type: 3}
      propertyPath: m_LocalPosition.y
      value: 0
      objectReference: {fileID: 0}
    - target: {fileID: -8679921383154817045, guid: 0728ee92d70c41042854e1610ea253d7, type: 3}
      propertyPath: m_LocalPosition.z
      value: 0
      objectReference: {fileID: 0}
    - target: {fileID: -8679921383154817045, guid: 0728ee92d70c41042854e1610ea253d7, type: 3}
      propertyPath: m_LocalRotation.w
      value: 0.57357645
      objectReference: {fileID: 0}
    - target: {fileID: -8679921383154817045, guid: 0728ee92d70c41042854e1610ea253d7, type: 3}
      propertyPath: m_LocalRotation.x
      value: 0.81915206
      objectReference: {fileID: 0}
    - target: {fileID: -8679921383154817045, guid: 0728ee92d70c41042854e1610ea253d7, type: 3}
      propertyPath: m_LocalRotation.y
      value: 0
      objectReference: {fileID: 0}
    - target: {fileID: -8679921383154817045, guid: 0728ee92d70c41042854e1610ea253d7, type: 3}
      propertyPath: m_LocalRotation.z
      value: 0
      objectReference: {fileID: 0}
    - target: {fileID: -8679921383154817045, guid: 0728ee92d70c41042854e1610ea253d7, type: 3}
      propertyPath: m_LocalEulerAnglesHint.x
      value: 110
      objectReference: {fileID: 0}
    - target: {fileID: -8679921383154817045, guid: 0728ee92d70c41042854e1610ea253d7, type: 3}
      propertyPath: m_LocalEulerAnglesHint.y
      value: 0
      objectReference: {fileID: 0}
    - target: {fileID: -8679921383154817045, guid: 0728ee92d70c41042854e1610ea253d7, type: 3}
      propertyPath: m_LocalEulerAnglesHint.z
      value: 0
      objectReference: {fileID: 0}
    - target: {fileID: -7635826562936255635, guid: 0728ee92d70c41042854e1610ea253d7, type: 3}
      propertyPath: m_Materials.Array.data[0]
      value: 
      objectReference: {fileID: 2100000, guid: 9833adad4004ab44d9e818610fdf6808, type: 2}
    - target: {fileID: 919132149155446097, guid: 0728ee92d70c41042854e1610ea253d7, type: 3}
      propertyPath: m_Name
      value: Rocketeer
      objectReference: {fileID: 0}
    m_RemovedComponents: []
  m_SourcePrefab: {fileID: 100100000, guid: 0728ee92d70c41042854e1610ea253d7, type: 3}
--- !u!4 &6716010788392264362 stripped
Transform:
  m_CorrespondingSourceObject: {fileID: -8679921383154817045, guid: 0728ee92d70c41042854e1610ea253d7, type: 3}
  m_PrefabInstance: {fileID: 6538849835078026561}
  m_PrefabAsset: {fileID: 0}
