%YAML 1.1
%TAG !u! tag:unity3d.com,2011:
--- !u!1001 &2732446307481000359
PrefabInstance:
  m_ObjectHideFlags: 0
  serializedVersion: 2
  m_Modification:
    m_TransformParent: {fileID: 4714879396692584519}
    m_Modifications:
    - target: {fileID: -8679921383154817045, guid: 6d57dd074689ca1479f911a17469a679, type: 3}
      propertyPath: m_RootOrder
      value: 0
      objectReference: {fileID: 0}
    - target: {fileID: -8679921383154817045, guid: 6d57dd074689ca1479f911a17469a679, type: 3}
      propertyPath: m_LocalPosition.x
      value: -0
      objectReference: {fileID: 0}
    - target: {fileID: -8679921383154817045, guid: 6d57dd074689ca1479f911a17469a679, type: 3}
      propertyPath: m_LocalPosition.y
      value: 0
      objectReference: {fileID: 0}
    - target: {fileID: -8679921383154817045, guid: 6d57dd074689ca1479f911a17469a679, type: 3}
      propertyPath: m_LocalPosition.z
      value: 0
      objectReference: {fileID: 0}
    - target: {fileID: -8679921383154817045, guid: 6d57dd074689ca1479f911a17469a679, type: 3}
      propertyPath: m_LocalRotation.w
      value: 1
      objectReference: {fileID: 0}
    - target: {fileID: -8679921383154817045, guid: 6d57dd074689ca1479f911a17469a679, type: 3}
      propertyPath: m_LocalRotation.x
      value: 0
      objectReference: {fileID: 0}
    - target: {fileID: -8679921383154817045, guid: 6d57dd074689ca1479f911a17469a679, type: 3}
      propertyPath: m_LocalRotation.y
      value: -0
      objectReference: {fileID: 0}
    - target: {fileID: -8679921383154817045, guid: 6d57dd074689ca1479f911a17469a679, type: 3}
      propertyPath: m_LocalRotation.z
      value: -0
      objectReference: {fileID: 0}
    - target: {fileID: -8679921383154817045, guid: 6d57dd074689ca1479f911a17469a679, type: 3}
      propertyPath: m_LocalEulerAnglesHint.x
      value: 0
      objectReference: {fileID: 0}
    - target: {fileID: -8679921383154817045, guid: 6d57dd074689ca1479f911a17469a679, type: 3}
      propertyPath: m_LocalEulerAnglesHint.y
      value: 0
      objectReference: {fileID: 0}
    - target: {fileID: -8679921383154817045, guid: 6d57dd074689ca1479f911a17469a679, type: 3}
      propertyPath: m_LocalEulerAnglesHint.z
      value: 0
      objectReference: {fileID: 0}
    - target: {fileID: -7635826562936255635, guid: 6d57dd074689ca1479f911a17469a679, type: 3}
      propertyPath: m_Materials.Array.data[0]
      value: 
      objectReference: {fileID: 2100000, guid: 9833adad4004ab44d9e818610fdf6808, type: 2}
    - target: {fileID: 919132149155446097, guid: 6d57dd074689ca1479f911a17469a679, type: 3}
      propertyPath: m_Name
      value: HealthUp
      objectReference: {fileID: 0}
    m_RemovedComponents: []
  m_SourcePrefab: {fileID: 100100000, guid: 6d57dd074689ca1479f911a17469a679, type: 3}
--- !u!1001 &8645423254535077319
PrefabInstance:
  m_ObjectHideFlags: 0
  serializedVersion: 2
  m_Modification:
    m_TransformParent: {fileID: 0}
    m_Modifications:
    - target: {fileID: 2257480496459252955, guid: 134ae4a6e30436245a1033f397ac3cb5, type: 3}
      propertyPath: m_Name
      value: HealthUp
      objectReference: {fileID: 0}
    - target: {fileID: 3932816141849564544, guid: 134ae4a6e30436245a1033f397ac3cb5, type: 3}
      propertyPath: m_RootOrder
      value: 0
      objectReference: {fileID: 0}
    - target: {fileID: 3932816141849564544, guid: 134ae4a6e30436245a1033f397ac3cb5, type: 3}
      propertyPath: m_LocalPosition.x
      value: 0
      objectReference: {fileID: 0}
    - target: {fileID: 3932816141849564544, guid: 134ae4a6e30436245a1033f397ac3cb5, type: 3}
      propertyPath: m_LocalPosition.y
      value: 0
      objectReference: {fileID: 0}
    - target: {fileID: 3932816141849564544, guid: 134ae4a6e30436245a1033f397ac3cb5, type: 3}
      propertyPath: m_LocalPosition.z
      value: 0
      objectReference: {fileID: 0}
    - target: {fileID: 3932816141849564544, guid: 134ae4a6e30436245a1033f397ac3cb5, type: 3}
      propertyPath: m_LocalRotation.w
      value: 1
      objectReference: {fileID: 0}
    - target: {fileID: 3932816141849564544, guid: 134ae4a6e30436245a1033f397ac3cb5, type: 3}
      propertyPath: m_LocalRotation.x
      value: 0
      objectReference: {fileID: 0}
    - target: {fileID: 3932816141849564544, guid: 134ae4a6e30436245a1033f397ac3cb5, type: 3}
      propertyPath: m_LocalRotation.y
      value: 0
      objectReference: {fileID: 0}
    - target: {fileID: 3932816141849564544, guid: 134ae4a6e30436245a1033f397ac3cb5, type: 3}
      propertyPath: m_LocalRotation.z
      value: 0
      objectReference: {fileID: 0}
    - target: {fileID: 3932816141849564544, guid: 134ae4a6e30436245a1033f397ac3cb5, type: 3}
      propertyPath: m_LocalEulerAnglesHint.x
      value: 0
      objectReference: {fileID: 0}
    - target: {fileID: 3932816141849564544, guid: 134ae4a6e30436245a1033f397ac3cb5, type: 3}
      propertyPath: m_LocalEulerAnglesHint.y
      value: 0
      objectReference: {fileID: 0}
    - target: {fileID: 3932816141849564544, guid: 134ae4a6e30436245a1033f397ac3cb5, type: 3}
      propertyPath: m_LocalEulerAnglesHint.z
      value: 0
      objectReference: {fileID: 0}
    - target: {fileID: 5695931262797900349, guid: 134ae4a6e30436245a1033f397ac3cb5, type: 3}
      propertyPath: magnetDrag
      value: 0
      objectReference: {fileID: 0}
    - target: {fileID: 5695931262797900349, guid: 134ae4a6e30436245a1033f397ac3cb5, type: 3}
      propertyPath: magnetForce
      value: 0
      objectReference: {fileID: 0}
    - target: {fileID: 5695931262797900349, guid: 134ae4a6e30436245a1033f397ac3cb5, type: 3}
      propertyPath: healthAmount
      value: 30
      objectReference: {fileID: 0}
    - target: {fileID: 5695931262797900349, guid: 134ae4a6e30436245a1033f397ac3cb5, type: 3}
      propertyPath: upgradeHealth
      value: 1
      objectReference: {fileID: 0}
    - target: {fileID: 7511577631673085342, guid: 134ae4a6e30436245a1033f397ac3cb5, type: 3}
      propertyPath: m_IsKinematic
      value: 1
      objectReference: {fileID: 0}
    - target: {fileID: 7511577631673085342, guid: 134ae4a6e30436245a1033f397ac3cb5, type: 3}
      propertyPath: m_CollisionDetection
      value: 3
      objectReference: {fileID: 0}
    m_RemovedComponents: []
  m_SourcePrefab: {fileID: 100100000, guid: 134ae4a6e30436245a1033f397ac3cb5, type: 3}
--- !u!4 &4714879396692584519 stripped
Transform:
  m_CorrespondingSourceObject: {fileID: 3932816141849564544, guid: 134ae4a6e30436245a1033f397ac3cb5, type: 3}
  m_PrefabInstance: {fileID: 8645423254535077319}
  m_PrefabAsset: {fileID: 0}
