# Blender v3.0.1 OBJ File: 'DmgUp.blend'
# www.blender.org
mtllib DmgUp.mtl
o Cube_Cube.001
v -0.407872 -0.227065 0.287411
v 0.116512 -0.227065 0.287411
v -0.407872 -0.000000 0.418507
v 0.116512 0.000000 0.418507
v -0.407872 0.227065 0.287411
v 0.116512 0.227065 0.287410
v 0.232462 -0.227065 0.287411
v 0.232462 0.000000 0.418507
v 0.232462 0.227065 0.287410
v 0.232462 0.227065 0.156314
v 0.375168 -0.184490 0.262830
v 0.375168 0.000000 0.369345
v 0.375168 0.184490 0.262830
v 0.452468 -0.081052 0.203110
v 0.452468 0.000000 0.249905
v 0.452468 0.081052 0.203110
v -0.622830 -0.357771 0.222897
v -0.622830 0.357771 0.222897
v -0.622830 0.357771 -0.222897
v -0.622830 -0.357771 -0.222897
v 0.622830 0.357771 -0.222897
v 0.622830 -0.357771 -0.222897
v 0.622830 0.357771 0.222897
v 0.622830 -0.357771 0.222897
v -0.725938 -0.668539 -0.259797
v -0.725938 -0.668539 0.259797
v -0.725938 0.384028 0.259797
v -0.725938 0.668539 0.259797
v -0.725938 0.668539 -0.259797
v -0.725938 -0.384028 -0.259797
v 0.725938 -0.668539 -0.259797
v 0.725938 0.668539 -0.259797
v 0.725938 -0.384028 -0.259797
v 0.725938 -0.668539 0.259797
v 0.725938 0.668539 0.259797
v 0.725938 -0.384028 0.259797
v -0.725938 -0.384028 0.259797
v -0.725938 0.384028 -0.259797
v 0.725938 0.384028 -0.259797
v 0.725938 0.384028 0.259797
v 0.375168 0.184490 0.156314
v 0.452468 0.081052 0.156314
v 0.232462 -0.227065 0.156314
v 0.375168 -0.184490 0.156314
v 0.452468 -0.081052 0.156314
v -0.407872 -0.227065 0.156315
v 0.116512 -0.227065 0.156314
v -0.407872 0.227065 0.156315
v 0.116512 0.227065 0.156314
vt 0.047403 0.775236
vt 0.047403 0.775236
vt 0.045013 0.775844
vt 0.045013 0.775844
vt 0.077298 0.762084
vt 0.048431 0.762084
vt 0.046042 0.761475
vt 0.079687 0.761475
vt 0.077298 0.762084
vt 0.079687 0.761475
vt 0.048431 0.762084
vt 0.046042 0.761475
vt 0.102721 0.833107
vt 0.102721 0.849953
vt 0.102721 0.849953
vt 0.102721 0.841530
vt 0.102721 0.833107
vt 0.013315 0.808427
vt 0.067809 0.808427
vt 0.067809 0.808427
vt 0.013315 0.808427
vt 0.013315 0.817934
vt 0.067809 0.817934
vt 0.067809 0.841530
vt 0.013315 0.841530
vt 0.013315 0.849740
vt 0.067809 0.849740
vt 0.067809 0.873337
vt 0.013315 0.873337
vt 0.079858 0.808427
vt 0.079858 0.808427
vt 0.094688 0.812852
vt 0.094688 0.812852
vt 0.079858 0.873337
vt 0.079858 0.873337
vt 0.094688 0.868912
vt 0.094688 0.868912
vt 0.079858 0.841530
vt 0.079858 0.817934
vt 0.094688 0.822358
vt 0.094688 0.841530
vt 0.094688 0.822358
vt 0.079858 0.849740
vt 0.094688 0.849740
vt 0.079858 0.855620
vt 0.079858 0.832024
vt 0.079858 0.855620
vt 0.102721 0.849740
vt 0.102721 0.858163
vt 0.102721 0.858163
vt 0.079490 0.759319
vt 0.079490 0.771051
vt 0.044295 0.771051
vt 0.044295 0.759319
vt 0.076269 0.775236
vt 0.078658 0.775844
vt 0.079490 0.752838
vt 0.079490 0.764569
vt 0.079490 0.764569
vt 0.079490 0.752838
vt 0.076269 0.775236
vt 0.078658 0.775844
vt 0.044295 0.759319
vt 0.044295 0.771051
vt 0.079490 0.771051
vt 0.079490 0.759319
vt 0.044295 0.752838
vt 0.044295 0.764569
vt 0.044295 0.764569
vt 0.044295 0.752838
vt 0.047846 0.783320
vt 0.047846 0.789913
vt 0.047846 0.789913
vt 0.047846 0.783320
vt 0.046474 0.792237
vt 0.046474 0.798830
vt 0.080119 0.798830
vt 0.080119 0.792237
vt 0.081491 0.783320
vt 0.081491 0.789913
vt 0.081491 0.789913
vt 0.081491 0.783320
vt 0.080119 0.792237
vt 0.080119 0.798830
vt 0.046474 0.798830
vt 0.046474 0.792237
vt 0.047846 0.758928
vt 0.081491 0.758928
vt 0.081491 0.758928
vt 0.047846 0.758928
vt 0.080462 0.810148
vt 0.046817 0.810148
vt 0.046817 0.810148
vt 0.080462 0.810148
vt 0.080119 0.767845
vt 0.080119 0.774439
vt 0.046474 0.774439
vt 0.046474 0.767845
vt 0.081491 0.765521
vt 0.081491 0.765521
vt 0.046474 0.767845
vt 0.046474 0.774439
vt 0.080119 0.774439
vt 0.080119 0.767845
vt 0.047846 0.765521
vt 0.047846 0.765521
vt 0.067809 0.873337
vt 0.013315 0.873337
vt 0.013315 0.860806
vt 0.013315 0.813612
vt 0.013315 0.813612
vt 0.013315 0.837209
vt 0.013315 0.860806
vt 0.067809 0.855620
vt 0.067809 0.855620
vt 0.067809 0.832024
vn -0.2468 -0.9691 0.0000
vn 0.0000 0.8148 0.5798
vn 0.2468 0.9691 0.0000
vn 0.0000 0.8148 -0.5798
vn 1.0000 0.0000 -0.0000
vn 0.0000 -1.0000 0.0000
vn 0.0000 -0.5000 0.8660
vn 0.0000 0.5000 0.8660
vn 0.2859 -0.9583 0.0000
vn 0.2859 0.9583 -0.0000
vn 0.2859 -0.4791 0.8299
vn 0.8010 -0.5986 -0.0000
vn 0.2859 0.4791 0.8299
vn -1.0000 -0.0000 0.0000
vn 0.8010 0.2993 0.5184
vn 0.8010 0.5986 0.0000
vn 0.8010 -0.2993 0.5184
vn -0.2468 0.9691 0.0000
vn 0.0000 0.0000 1.0000
vn 0.0000 -0.8148 0.5798
vn 0.2468 -0.9691 0.0000
vn 0.0000 0.0000 -1.0000
vn 0.0000 -0.8148 -0.5798
vn 0.0000 1.0000 0.0000
usemtl Material.002
s off
f 19/1/1 18/2/1 27/3/1 38/4/1
f 24/5/2 17/6/2 37/7/2 36/8/2
f 22/9/3 24/5/3 36/8/3 33/10/3
f 20/11/4 22/9/4 33/10/4 30/12/4
f 45/13/5 42/14/5 16/15/5 15/16/5 14/17/5
f 46/18/6 47/19/6 2/20/6 1/21/6
f 1/22/7 2/23/7 4/24/7 3/25/7
f 3/26/8 4/27/8 6/28/8 5/29/8
f 7/30/9 43/31/9 44/32/9 11/33/9
f 10/34/10 9/35/10 13/36/10 41/37/10
f 8/38/11 7/39/11 11/40/11 12/41/11
f 11/40/12 44/42/12 45/13/12 14/17/12
f 9/35/13 8/43/13 12/44/13 13/36/13
f 10/45/14 43/31/14 7/30/14 8/46/14 9/47/14
f 13/36/15 12/44/15 15/48/15 16/49/15
f 41/37/16 13/36/16 16/49/16 42/50/16
f 12/41/17 11/40/17 14/17/17 15/16/17
f 17/6/18 20/11/18 30/12/18 37/7/18
f 24/51/19 23/52/19 18/53/19 17/54/19
f 18/2/20 23/55/20 40/56/20 27/3/20
f 22/57/5 21/58/5 23/59/5 24/60/5
f 23/55/21 21/61/21 39/62/21 40/56/21
f 20/63/22 19/64/22 21/65/22 22/66/22
f 21/61/23 19/1/23 38/4/23 39/62/23
f 17/67/14 18/68/14 19/69/14 20/70/14
f 27/71/14 28/72/14 29/73/14 38/74/14
f 38/75/22 29/76/22 32/77/22 39/78/22
f 39/79/5 32/80/5 35/81/5 40/82/5
f 40/83/19 35/84/19 28/85/19 27/86/19
f 25/87/6 31/88/6 34/89/6 26/90/6
f 32/91/24 29/92/24 28/93/24 35/94/24
f 34/95/19 36/96/19 37/97/19 26/98/19
f 31/88/5 33/99/5 36/100/5 34/89/5
f 25/101/22 30/102/22 33/103/22 31/104/22
f 26/90/14 37/105/14 30/106/14 25/87/14
f 5/29/24 6/28/24 49/107/24 48/108/24
f 48/109/14 46/110/14 1/111/14 3/112/14 5/113/14
f 47/19/5 49/114/5 6/115/5 4/116/5 2/20/5
