# Blender v3.0.1 OBJ File: 'SpeedUp.blend'
# www.blender.org
mtllib SpeedUp.mtl
o Cube_Cube.001
v -0.622830 -0.344016 0.222897
v -0.622830 0.344016 0.222897
v -0.622830 0.344016 -0.222897
v -0.622830 -0.344016 -0.222897
v 0.622830 0.344016 -0.222897
v 0.622830 -0.344016 -0.222897
v 0.622830 0.344016 0.222897
v 0.622830 -0.344016 0.222897
v -0.709555 -0.776878 -0.257225
v -0.709555 -0.776878 0.257225
v -0.718750 0.365805 0.257225
v -0.710732 0.769334 0.257225
v -0.710732 0.769334 -0.257225
v -0.718750 -0.365805 -0.257225
v 0.709555 -0.547678 -0.257225
v 0.710732 0.555223 -0.257225
v 0.718750 -0.365805 -0.257225
v 0.709555 -0.547678 0.257225
v 0.710732 0.555223 0.257225
v 0.718750 -0.365805 0.257225
v -0.718750 -0.365805 0.257225
v -0.718750 0.365805 -0.257225
v 0.718750 0.365805 -0.257225
v 0.718750 0.365805 0.257225
v -0.143120 -0.156214 0.281506
v -0.143120 0.156214 0.281506
v -0.162297 -0.162297 -0.025741
v -0.162297 0.162297 -0.025741
v 0.243503 -0.132074 0.281506
v 0.243503 0.132074 0.281506
v 0.229360 -0.149721 -0.001933
v 0.229360 0.149721 -0.001933
v 0.248551 -0.197083 0.281506
v 0.248551 0.197083 0.281506
v 0.230051 -0.233254 -0.000301
v 0.230051 0.233254 -0.000301
v -0.354996 0.162297 0.281506
v 0.450154 0.000000 0.281506
v -0.354996 -0.162297 0.281506
v 0.468630 0.000000 -0.000245
v -0.354996 -0.162297 -0.025741
v -0.354996 0.162297 -0.025741
v -0.246603 0.162297 -0.025741
v -0.246603 -0.162297 -0.025741
v -0.246603 0.162297 0.281506
v -0.246603 -0.162297 0.281506
v -0.447904 0.162297 0.281506
v -0.447904 -0.162297 0.281506
v -0.447904 -0.162297 -0.025741
v -0.447904 0.162297 -0.025741
v -0.415214 0.162297 -0.025741
v -0.415214 -0.162297 -0.025741
v -0.415214 0.162297 0.281506
v -0.415214 -0.162297 0.281506
vt 0.211991 0.796637
vt 0.166912 0.796637
vt 0.166912 0.796637
vt 0.211991 0.796637
vt 0.211991 0.787475
vt 0.211991 0.787475
vt 0.211991 0.787475
vt 0.211991 0.787475
vt 0.166912 0.796637
vt 0.211991 0.796637
vt 0.211991 0.796637
vt 0.166912 0.796637
vt 0.166912 0.787475
vt 0.166912 0.787475
vt 0.166912 0.787475
vt 0.166912 0.787475
vt 0.166912 0.811663
vt 0.211991 0.811663
vt 0.211991 0.811663
vt 0.166912 0.811663
vt 0.218154 0.768451
vt 0.218154 0.787587
vt 0.160749 0.787587
vt 0.160749 0.768451
vt 0.211991 0.802501
vt 0.211991 0.802501
vt 0.211991 0.802501
vt 0.211991 0.802501
vt 0.218154 0.756785
vt 0.218154 0.775920
vt 0.218154 0.775920
vt 0.218154 0.756785
vt 0.211991 0.811663
vt 0.166912 0.811663
vt 0.166912 0.811663
vt 0.211991 0.811663
vt 0.160749 0.768451
vt 0.160749 0.787587
vt 0.218154 0.787587
vt 0.218154 0.768451
vt 0.166912 0.802501
vt 0.166912 0.802501
vt 0.166912 0.802501
vt 0.166912 0.802501
vt 0.160749 0.756785
vt 0.160749 0.775920
vt 0.160749 0.775920
vt 0.160749 0.756785
vt 0.166912 0.821536
vt 0.166912 0.836562
vt 0.166912 0.836562
vt 0.166912 0.821536
vt 0.166912 0.830698
vt 0.166912 0.845724
vt 0.211991 0.845724
vt 0.211991 0.830698
vt 0.211991 0.821536
vt 0.211991 0.836562
vt 0.211991 0.836562
vt 0.211991 0.821536
vt 0.211991 0.830698
vt 0.211991 0.845724
vt 0.166912 0.845724
vt 0.166912 0.830698
vt 0.166912 0.792840
vt 0.211991 0.792840
vt 0.211991 0.792840
vt 0.166912 0.792840
vt 0.211991 0.863471
vt 0.166912 0.863471
vt 0.166912 0.863471
vt 0.211991 0.863471
vt 0.211991 0.800645
vt 0.211991 0.815671
vt 0.166912 0.815671
vt 0.166912 0.800645
vt 0.211991 0.791483
vt 0.211991 0.806509
vt 0.211991 0.806509
vt 0.211991 0.791483
vt 0.166912 0.800645
vt 0.166912 0.815671
vt 0.211991 0.815671
vt 0.211991 0.800645
vt 0.166912 0.791483
vt 0.166912 0.806509
vt 0.166912 0.806509
vt 0.166912 0.791483
vt 0.177845 0.835728
vt 0.177845 0.859848
vt 0.177845 0.859848
vt 0.177845 0.835728
vt 0.206200 0.859848
vt 0.206200 0.835728
vt 0.206200 0.859848
vt 0.206200 0.866686
vt 0.206200 0.866686
vt 0.206200 0.835728
vt 0.177845 0.824023
vt 0.206200 0.824023
vt 0.206200 0.824023
vt 0.177845 0.824023
vt 0.206200 0.870864
vt 0.177845 0.870864
vt 0.177845 0.870864
vt 0.206200 0.870864
vt 0.206200 0.828890
vt 0.225532 0.847788
vt 0.206200 0.828890
vt 0.163526 0.835728
vt 0.163526 0.859848
vt 0.163526 0.859848
vt 0.163526 0.835728
vt 0.206200 0.817185
vt 0.206200 0.817185
vt 0.225532 0.836083
vt 0.225532 0.836083
vt 0.206200 0.874470
vt 0.206200 0.874470
vt 0.225532 0.864503
vt 0.225532 0.864503
vt 0.225532 0.847788
vt 0.171581 0.835728
vt 0.171581 0.835728
vt 0.171581 0.859848
vt 0.171581 0.859848
vt 0.163526 0.824023
vt 0.171581 0.824023
vt 0.171581 0.824023
vt 0.163526 0.824023
vt 0.163526 0.870864
vt 0.171581 0.870864
vt 0.171581 0.870864
vt 0.163526 0.870864
vt 0.156622 0.825656
vt 0.156622 0.849777
vt 0.156622 0.849777
vt 0.156622 0.825656
vt 0.159051 0.835728
vt 0.159051 0.835728
vt 0.159051 0.859848
vt 0.159051 0.859848
vt 0.156622 0.859848
vt 0.156622 0.835728
vt 0.156622 0.835728
vt 0.156622 0.859848
vt 0.156622 0.824023
vt 0.156622 0.824023
vt 0.159051 0.824023
vt 0.159051 0.824023
vt 0.156622 0.870864
vt 0.156622 0.870864
vt 0.159051 0.870864
vt 0.159051 0.870864
vn 0.0000 0.8443 0.5359
vn 0.2215 0.9752 0.0000
vn 0.0000 0.8443 -0.5359
vn -0.2215 0.9752 0.0000
vn 0.0000 -0.8443 0.5359
vn 0.0000 0.0000 1.0000
vn 0.2215 -0.9752 0.0000
vn 1.0000 0.0000 0.0000
vn 0.0000 -0.8443 -0.5359
vn 0.0000 0.0000 -1.0000
vn -0.2215 -0.9752 0.0000
vn -1.0000 0.0000 0.0000
vn -0.9998 0.0199 0.0000
vn 0.9991 0.0423 0.0000
vn 0.1594 -0.9872 0.0000
vn 0.1489 0.9888 0.0000
vn 0.9987 -0.0505 0.0000
vn -0.9997 -0.0224 0.0000
vn -0.9981 0.0000 0.0623
vn 0.0607 0.0000 -0.9982
vn -0.9974 0.0379 0.0612
vn 0.0459 -0.9982 0.0375
vn 0.0459 0.9982 0.0375
vn 0.9209 0.0000 -0.3899
vn -0.9974 -0.0379 0.0612
vn 0.6983 -0.7143 0.0458
vn 0.6983 0.7143 0.0458
vn 0.0002 0.0000 -1.0000
vn 0.0000 -1.0000 0.0000
vn 0.0000 1.0000 0.0000
usemtl Material.002
s off
f 8/1/1 1/2/1 21/3/1 20/4/1
f 6/5/2 8/6/2 20/7/2 17/8/2
f 4/9/3 6/10/3 17/11/3 14/12/3
f 1/13/4 4/14/4 14/15/4 21/16/4
f 2/17/5 7/18/5 24/19/5 11/20/5
f 8/21/6 7/22/6 2/23/6 1/24/6
f 7/25/7 5/26/7 23/27/7 24/28/7
f 6/29/8 5/30/8 7/31/8 8/32/8
f 5/33/9 3/34/9 22/35/9 23/36/9
f 4/37/10 3/38/10 5/39/10 6/40/10
f 3/41/11 2/42/11 11/43/11 22/44/11
f 1/45/12 2/46/12 3/47/12 4/48/12
f 11/49/13 12/50/13 13/51/13 22/52/13
f 22/53/10 13/54/10 16/55/10 23/56/10
f 23/57/14 16/58/14 19/59/14 24/60/14
f 24/61/6 19/62/6 12/63/6 11/64/6
f 9/65/15 15/66/15 18/67/15 10/68/15
f 16/69/16 13/70/16 12/71/16 19/72/16
f 18/73/6 20/74/6 21/75/6 10/76/6
f 15/77/17 17/78/17 20/79/17 18/80/17
f 9/81/10 14/82/10 17/83/10 15/84/10
f 10/85/18 21/86/18 14/87/18 9/88/18
f 25/89/19 26/90/19 28/91/19 27/92/19
f 27/92/20 28/91/20 32/93/20 31/94/20
f 32/93/21 30/95/21 34/96/21 36/97/21
f 29/98/6 30/95/6 26/90/6 25/89/6
f 27/99/22 31/100/22 29/101/22 25/102/22
f 32/103/23 28/104/23 26/105/23 30/106/23
f 34/96/6 33/107/6 38/108/6
f 31/94/24 32/93/24 36/97/24 35/109/24
f 30/95/6 29/98/6 33/107/6 34/96/6
f 29/98/25 31/94/25 35/109/25 33/107/25
f 39/110/12 37/111/12 42/112/12 41/113/12
f 33/114/26 35/115/26 40/116/26 38/117/26
f 36/118/27 34/119/27 38/120/27 40/121/27
f 35/109/28 36/97/28 40/122/28
f 46/123/8 44/124/8 43/125/8 45/126/8
f 41/127/29 44/128/29 46/129/29 39/130/29
f 39/110/6 46/123/6 45/126/6 37/111/6
f 37/131/30 45/132/30 43/133/30 42/134/30
f 42/112/10 43/125/10 44/124/10 41/113/10
f 48/135/12 47/136/12 50/137/12 49/138/12
f 54/139/8 52/140/8 51/141/8 53/142/8
f 47/143/6 48/144/6 54/139/6 53/142/6
f 49/145/10 50/146/10 51/141/10 52/140/10
f 48/147/29 49/148/29 52/149/29 54/150/29
f 50/151/30 47/152/30 53/153/30 51/154/30
