%YAML 1.1
%TAG !u! tag:unity3d.com,2011:
--- !u!1001 &8838520841187036501
PrefabInstance:
  m_ObjectHideFlags: 0
  serializedVersion: 2
  m_Modification:
    m_TransformParent: {fileID: 0}
    m_Modifications:
    - target: {fileID: 4001601004434555149, guid: 5e1c8080f38562d48af6f296038d24d7, type: 3}
      propertyPath: m_RootOrder
      value: 0
      objectReference: {fileID: 0}
    - target: {fileID: 4001601004434555149, guid: 5e1c8080f38562d48af6f296038d24d7, type: 3}
      propertyPath: m_LocalPosition.x
      value: 0
      objectReference: {fileID: 0}
    - target: {fileID: 4001601004434555149, guid: 5e1c8080f38562d48af6f296038d24d7, type: 3}
      propertyPath: m_LocalPosition.y
      value: 0
      objectReference: {fileID: 0}
    - target: {fileID: 4001601004434555149, guid: 5e1c8080f38562d48af6f296038d24d7, type: 3}
      propertyPath: m_LocalPosition.z
      value: 0
      objectReference: {fileID: 0}
    - target: {fileID: 4001601004434555149, guid: 5e1c8080f38562d48af6f296038d24d7, type: 3}
      propertyPath: m_LocalRotation.w
      value: 1
      objectReference: {fileID: 0}
    - target: {fileID: 4001601004434555149, guid: 5e1c8080f38562d48af6f296038d24d7, type: 3}
      propertyPath: m_LocalRotation.x
      value: 0
      objectReference: {fileID: 0}
    - target: {fileID: 4001601004434555149, guid: 5e1c8080f38562d48af6f296038d24d7, type: 3}
      propertyPath: m_LocalRotation.y
      value: 0
      objectReference: {fileID: 0}
    - target: {fileID: 4001601004434555149, guid: 5e1c8080f38562d48af6f296038d24d7, type: 3}
      propertyPath: m_LocalRotation.z
      value: 0
      objectReference: {fileID: 0}
    - target: {fileID: 4001601004434555149, guid: 5e1c8080f38562d48af6f296038d24d7, type: 3}
      propertyPath: m_LocalEulerAnglesHint.x
      value: 0
      objectReference: {fileID: 0}
    - target: {fileID: 4001601004434555149, guid: 5e1c8080f38562d48af6f296038d24d7, type: 3}
      propertyPath: m_LocalEulerAnglesHint.y
      value: 0
      objectReference: {fileID: 0}
    - target: {fileID: 4001601004434555149, guid: 5e1c8080f38562d48af6f296038d24d7, type: 3}
      propertyPath: m_LocalEulerAnglesHint.z
      value: 0
      objectReference: {fileID: 0}
    - target: {fileID: 4001601004434555154, guid: 5e1c8080f38562d48af6f296038d24d7, type: 3}
      propertyPath: m_Name
      value: PewPewProjectileEnemy
      objectReference: {fileID: 0}
    - target: {fileID: 6240616915082664658, guid: 5e1c8080f38562d48af6f296038d24d7, type: 3}
      propertyPath: m_Materials.Array.data[0]
      value: 
      objectReference: {fileID: 2100000, guid: 9833adad4004ab44d9e818610fdf6808, type: 2}
    - target: {fileID: 7475581911770398278, guid: 5e1c8080f38562d48af6f296038d24d7, type: 3}
      propertyPath: m_Mesh
      value: 
      objectReference: {fileID: -2432090755550338912, guid: 8675f57e311f294409a1ed1613cb03b5, type: 3}
    m_RemovedComponents: []
  m_SourcePrefab: {fileID: 100100000, guid: 5e1c8080f38562d48af6f296038d24d7, type: 3}
