# Blender v3.0.1 OBJ File: 'SoundBlaster.blend'
# www.blender.org
mtllib SoundBlaster.mtl
o Cube_Cube.001
v 0.240172 -0.583298 -0.358692
v 0.186051 0.048958 -0.163862
v 0.257514 -0.361430 -0.795357
v 0.160389 0.337365 -0.384721
v 0.200000 0.187253 -0.660353
v 0.245433 -0.252378 -0.268228
v 0.000000 -0.389763 -0.795624
v 0.000000 0.339144 -0.384721
v 0.000000 -0.630832 -0.373998
v 0.000000 -0.016073 -0.201433
v 0.000000 -0.268773 -0.268228
v 0.000000 0.188450 -0.660353
v 0.270921 -0.509365 -0.603836
v 0.173072 0.194817 -0.275559
v 0.222455 -0.030038 -0.466542
v 0.000000 0.194735 -0.275559
v 0.000000 -0.532651 -0.608332
v 0.000000 0.869236 0.787974
v 0.000000 0.925332 1.194593
v 0.313855 0.739233 0.787974
v 0.364263 0.770651 1.251563
v 0.449112 0.397768 0.783146
v 0.515146 0.406388 1.251564
v 0.313855 0.111524 0.787974
v 0.364263 0.064913 1.259160
v 0.000000 -0.018479 0.787974
v 0.000000 -0.082171 1.209785
v 0.000000 0.694425 0.230057
v 0.278074 0.614850 0.783880
v 0.416880 0.302432 -0.008865
v 0.278074 0.195896 0.783880
v 0.000000 0.015794 0.305976
v 0.348395 0.292883 -0.013788
v 0.270300 0.163292 -0.015689
v 0.000000 0.093535 -0.061166
v 0.000000 0.763200 0.784845
v 0.089196 0.673786 0.783880
v 0.341924 0.460703 0.783880
v 0.416880 0.400677 0.783427
v 0.341410 0.314576 0.789585
v 0.064373 0.129214 0.783880
v 0.000000 0.062011 0.783992
v 0.000000 0.647533 0.192574
v 0.094444 0.616297 0.190925
v 0.325890 0.353071 0.016906
v 0.310697 0.271797 -0.070074
v 0.000000 0.093296 0.254903
v 0.052746 0.127170 0.236845
v 0.000000 0.635720 0.107944
v 0.271174 0.548747 0.074269
v 0.000000 0.622159 -0.488277
v 0.166294 0.270998 -0.333898
v 0.252124 0.393569 -0.487396
v 0.000000 0.702488 0.129658
v 0.362909 0.615515 0.095983
v 0.417625 0.426441 0.032018
v 0.440129 0.366254 0.001324
v 0.307079 0.582222 -0.488277
v 0.258029 0.279664 -0.346516
v 0.402432 0.280464 -0.082692
v 0.000000 0.091795 0.204769
v 0.000000 0.089228 0.118980
v 0.049505 0.120536 0.183024
v 0.049313 0.114422 0.125787
v 0.000000 -0.063394 0.192400
v 0.000000 -0.060365 0.106626
v 0.074522 -0.036028 0.165946
v 0.074330 -0.038399 0.108432
v 0.000000 -0.232039 0.167734
v 0.000000 -0.187000 0.081713
v 0.076621 -0.204748 0.147423
v 0.076338 -0.177813 0.088133
v 0.000000 -0.275421 0.033772
v 0.000000 -0.181151 0.010509
v 0.069728 -0.256424 0.044190
v 0.080861 -0.195362 0.024484
v 0.000000 -0.241062 -0.259716
v 0.000000 -0.140636 -0.225873
v 0.052209 -0.221475 -0.253747
v 0.062391 -0.164186 -0.235035
v 0.100008 -0.003165 -0.059888
v 0.104110 0.122398 -0.050804
v 0.000000 -0.024219 -0.047093
v 0.000000 -0.074498 -0.115401
v 0.000000 -0.109594 -0.003471
v 0.106755 0.394595 -0.487396
v 0.000000 0.273092 -0.505535
v 0.081223 0.338243 -0.384721
v 0.000000 0.462366 -0.487657
v 0.100168 0.442584 -0.487620
v 0.000000 0.358163 -0.662598
v 0.000000 0.478408 -0.559139
v 0.100275 0.459543 -0.563894
v 0.000000 0.612196 -0.711929
v -0.240172 -0.583298 -0.358692
v -0.186051 0.048958 -0.163862
v -0.257514 -0.361430 -0.795357
v -0.160389 0.337365 -0.384721
v -0.200000 0.187253 -0.660353
v -0.245433 -0.252378 -0.268228
v -0.270921 -0.509365 -0.603836
v -0.173072 0.194817 -0.275559
v -0.222455 -0.030038 -0.466542
v -0.313855 0.739233 0.787974
v -0.364263 0.770651 1.251563
v -0.449112 0.397768 0.783146
v -0.515146 0.406388 1.251564
v -0.313855 0.111524 0.787974
v -0.364263 0.064913 1.259160
v -0.278074 0.614850 0.783880
v -0.416880 0.302432 -0.008865
v -0.278074 0.195896 0.783880
v -0.348395 0.292883 -0.013788
v -0.270300 0.163292 -0.015689
v -0.089196 0.673786 0.783880
v -0.341924 0.460703 0.783880
v -0.416880 0.400677 0.783427
v -0.341410 0.314576 0.789585
v -0.064373 0.129214 0.783880
v -0.094444 0.616297 0.190925
v -0.325890 0.353071 0.016906
v -0.310697 0.271797 -0.070074
v -0.052746 0.127170 0.236845
v -0.271174 0.548747 0.074269
v -0.166294 0.270998 -0.333898
v -0.252124 0.393569 -0.487396
v -0.362909 0.615515 0.095983
v -0.417625 0.426441 0.032018
v -0.440129 0.366254 0.001324
v -0.307079 0.582222 -0.488277
v -0.258029 0.279664 -0.346516
v -0.402432 0.280464 -0.082692
v -0.049505 0.120536 0.183024
v -0.049313 0.114422 0.125787
v -0.074522 -0.036028 0.165946
v -0.074330 -0.038399 0.108432
v -0.076621 -0.204748 0.147423
v -0.076338 -0.177813 0.088133
v -0.069728 -0.256424 0.044190
v -0.080861 -0.195362 0.024484
v -0.052209 -0.221475 -0.253747
v -0.062391 -0.164186 -0.235035
v -0.100008 -0.003165 -0.059888
v -0.104110 0.122398 -0.050804
v -0.106755 0.394595 -0.487396
v -0.081223 0.338243 -0.384721
v -0.100168 0.442584 -0.487620
v -0.100275 0.459543 -0.563894
vt 0.184290 0.926308
vt 0.183270 0.934811
vt 0.182439 0.941420
vt 0.182405 0.941396
vt 0.184242 0.926274
vt 0.170926 0.921460
vt 0.174428 0.935343
vt 0.165516 0.935646
vt 0.156552 0.923028
vt 0.156040 0.892169
vt 0.156834 0.893003
vt 0.147003 0.900605
vt 0.145556 0.898661
vt 0.155857 0.902524
vt 0.146026 0.910127
vt 0.165256 0.904665
vt 0.166368 0.905474
vt 0.144317 0.904512
vt 0.154843 0.917413
vt 0.154195 0.916951
vt 0.142870 0.902567
vt 0.181258 0.917061
vt 0.181254 0.917061
vt 0.170958 0.920470
vt 0.174080 0.922351
vt 0.163807 0.930030
vt 0.162297 0.926713
vt 0.158064 0.922236
vt 0.157392 0.921211
vt 0.155656 0.918856
vt 0.155050 0.918068
vt 0.188273 0.911891
vt 0.188315 0.911892
vt 0.188359 0.911893
vt 0.185007 0.914298
vt 0.167100 0.899127
vt 0.184975 0.919926
vt 0.166965 0.888796
vt 0.168077 0.889605
vt 0.183137 0.935048
vt 0.179082 0.935186
vt 0.202827 0.991940
vt 0.203684 0.999130
vt 0.200937 1.000084
vt 0.200534 0.991898
vt 0.194513 0.999966
vt 0.194513 0.991702
vt 0.191424 0.979062
vt 0.191424 0.993447
vt 0.180937 0.993487
vt 0.182634 0.979049
vt 0.176450 0.991889
vt 0.178643 0.978975
vt 0.203222 0.980426
vt 0.208003 0.978765
vt 0.177065 0.978662
vt 0.181552 0.980261
vt 0.192040 0.980220
vt 0.182634 0.983047
vt 0.178643 0.982974
vt 0.181117 0.982897
vt 0.183180 0.982932
vt 0.185227 0.982969
vt 0.201904 0.983402
vt 0.191424 0.983061
vt 0.191514 0.983071
vt 0.193356 0.983119
vt 0.198088 0.983206
vt 0.205895 0.983476
vt 0.199898 0.983240
vt 0.202642 0.983320
vt 0.188867 0.983212
vt 0.185425 0.931408
vt 0.185622 0.918605
vt 0.186054 0.918000
vt 0.185857 0.930803
vt 0.182714 0.969015
vt 0.181955 0.959332
vt 0.183217 0.959994
vt 0.184171 0.969058
vt 0.177596 0.948480
vt 0.174360 0.948420
vt 0.174749 0.921872
vt 0.173089 0.922718
vt 0.173061 0.920284
vt 0.174475 0.919255
vt 0.174230 0.916472
vt 0.173013 0.916119
vt 0.173383 0.907381
vt 0.174775 0.907909
vt 0.176728 0.909650
vt 0.198234 0.951315
vt 0.190754 0.951177
vt 0.186216 0.913862
vt 0.195660 0.916820
vt 0.176745 0.955898
vt 0.177716 0.956417
vt 0.176899 0.955981
vt 0.198736 0.938660
vt 0.189292 0.935701
vt 0.192838 0.936500
vt 0.201956 0.939773
vt 0.179188 0.902575
vt 0.177235 0.900835
vt 0.170650 0.893401
vt 0.173773 0.895283
vt 0.182464 0.959369
vt 0.184502 0.900033
vt 0.180950 0.889993
vt 0.176110 0.945747
vt 0.176591 0.946754
vt 0.177955 0.959698
vt 0.176550 0.959772
vt 0.200348 0.922650
vt 0.198834 0.922542
vt 0.201094 0.951367
vt 0.199850 0.918532
vt 0.179241 0.968951
vt 0.178262 0.968926
vt 0.182042 0.907108
vt 0.183350 0.948862
vt 0.173411 0.960218
vt 0.173968 0.959934
vt 0.172132 0.961028
vt 0.176418 0.954975
vt 0.171158 0.949752
vt 0.180374 0.958117
vt 0.177309 0.958495
vt 0.167229 0.951434
vt 0.199496 0.948078
vt 0.190378 0.944805
vt 0.187484 0.943262
vt 0.183396 0.939109
vt 0.183593 0.926305
vt 0.189246 0.919571
vt 0.198402 0.919696
vt 0.188888 0.916198
vt 0.188931 0.916199
vt 0.191757 0.911266
vt 0.191707 0.911265
vt 0.186398 0.934158
vt 0.189945 0.934957
vt 0.184699 0.887230
vt 0.200340 0.919732
vt 0.189296 0.919572
vt 0.191625 0.919604
vt 0.192585 0.919619
vt 0.202926 0.940372
vt 0.206147 0.941485
vt 0.199995 0.957480
vt 0.195804 0.955768
vt 0.194711 0.927386
vt 0.196649 0.927422
vt 0.167752 0.953943
vt 0.167816 0.956736
vt 0.159645 0.955686
vt 0.161005 0.952833
vt 0.173201 0.966493
vt 0.171787 0.967523
vt 0.164267 0.966784
vt 0.165619 0.965525
vt 0.175153 0.954921
vt 0.175398 0.957704
vt 0.176133 0.944315
vt 0.177350 0.944668
vt 0.169950 0.943689
vt 0.168885 0.943582
vt 0.159645 0.948850
vt 0.158303 0.949812
vt 0.156317 0.943272
vt 0.157230 0.943795
vt 0.163202 0.942579
vt 0.162762 0.942259
vt 0.156105 0.965437
vt 0.157448 0.964475
vt 0.163598 0.932950
vt 0.162896 0.933616
vt 0.164641 0.921050
vt 0.165775 0.921515
vt 0.157230 0.950631
vt 0.160210 0.949729
vt 0.163495 0.940062
vt 0.163935 0.940382
vt 0.163140 0.937278
vt 0.163842 0.936612
vt 0.172127 0.967080
vt 0.171094 0.967682
vt 0.166912 0.969723
vt 0.156985 0.940377
vt 0.156073 0.939854
vt 0.158002 0.925643
vt 0.158948 0.925950
vt 0.159192 0.936204
vt 0.161955 0.937163
vt 0.178212 0.967633
vt 0.176821 0.967104
vt 0.170162 0.941645
vt 0.176747 0.949078
vt 0.170662 0.948525
vt 0.167250 0.945768
vt 0.167738 0.955045
vt 0.171150 0.957803
vt 0.165935 0.960445
vt 0.191047 0.956224
vt 0.190087 0.956208
vt 0.190978 0.952522
vt 0.191889 0.952769
vt 0.186470 0.946651
vt 0.183416 0.940730
vt 0.187685 0.933184
vt 0.192516 0.938064
vt 0.191625 0.941751
vt 0.189296 0.941719
vt 0.198518 0.945474
vt 0.191901 0.943909
vt 0.187070 0.939028
vt 0.199441 0.936861
vt 0.184242 0.926274
vt 0.182405 0.941396
vt 0.182439 0.941420
vt 0.170926 0.921460
vt 0.156552 0.923028
vt 0.165516 0.935646
vt 0.174428 0.935343
vt 0.147003 0.900605
vt 0.156834 0.893003
vt 0.155857 0.902524
vt 0.146026 0.910127
vt 0.166368 0.905474
vt 0.144317 0.904512
vt 0.154843 0.917413
vt 0.181258 0.917061
vt 0.174080 0.922351
vt 0.155656 0.918856
vt 0.157392 0.921211
vt 0.163807 0.930030
vt 0.188273 0.911891
vt 0.185007 0.914298
vt 0.188315 0.911892
vt 0.167100 0.899127
vt 0.184975 0.919926
vt 0.168077 0.889605
vt 0.179082 0.935186
vt 0.183137 0.935048
vt 0.200534 0.991898
vt 0.200937 1.000084
vt 0.194513 0.991702
vt 0.194513 0.999966
vt 0.191424 0.979062
vt 0.182634 0.979049
vt 0.180937 0.993487
vt 0.191424 0.993447
vt 0.203222 0.980426
vt 0.192040 0.980220
vt 0.181552 0.980261
vt 0.182634 0.983047
vt 0.185227 0.982969
vt 0.183180 0.982932
vt 0.201904 0.983402
vt 0.198088 0.983206
vt 0.193356 0.983119
vt 0.191514 0.983071
vt 0.191424 0.983061
vt 0.199898 0.983240
vt 0.188867 0.983212
vt 0.185425 0.931408
vt 0.185857 0.930803
vt 0.186054 0.918000
vt 0.185622 0.918605
vt 0.182714 0.969015
vt 0.181955 0.959332
vt 0.177596 0.948480
vt 0.176728 0.909650
vt 0.174775 0.907909
vt 0.174230 0.916472
vt 0.174475 0.919255
vt 0.174749 0.921872
vt 0.174360 0.948420
vt 0.198234 0.951315
vt 0.195660 0.916820
vt 0.186216 0.913862
vt 0.190754 0.951177
vt 0.176745 0.955898
vt 0.176899 0.955981
vt 0.177716 0.956417
vt 0.198736 0.938660
vt 0.201956 0.939773
vt 0.192838 0.936500
vt 0.189292 0.935701
vt 0.179188 0.902575
vt 0.173773 0.895283
vt 0.177235 0.900835
vt 0.184502 0.900033
vt 0.180950 0.889993
vt 0.176110 0.945747
vt 0.176550 0.959772
vt 0.177955 0.959698
vt 0.176591 0.946754
vt 0.201094 0.951367
vt 0.198834 0.922542
vt 0.178262 0.968926
vt 0.179241 0.968951
vt 0.182042 0.907108
vt 0.183350 0.948862
vt 0.173968 0.959934
vt 0.176418 0.954975
vt 0.171158 0.949752
vt 0.180374 0.958117
vt 0.199496 0.948078
vt 0.198402 0.919696
vt 0.189246 0.919571
vt 0.183593 0.926305
vt 0.183396 0.939109
vt 0.187484 0.943262
vt 0.190378 0.944805
vt 0.188888 0.916198
vt 0.191707 0.911265
vt 0.191757 0.911266
vt 0.188931 0.916199
vt 0.186398 0.934158
vt 0.189945 0.934957
vt 0.184699 0.887230
vt 0.191625 0.919604
vt 0.189296 0.919572
vt 0.194711 0.927386
vt 0.195804 0.955768
vt 0.167752 0.953943
vt 0.161005 0.952833
vt 0.159645 0.955686
vt 0.167816 0.956736
vt 0.173201 0.966493
vt 0.165619 0.965525
vt 0.175153 0.954921
vt 0.175398 0.957704
vt 0.169950 0.943689
vt 0.177350 0.944668
vt 0.159645 0.948850
vt 0.157230 0.943795
vt 0.163202 0.942579
vt 0.157448 0.964475
vt 0.164641 0.921050
vt 0.162896 0.933616
vt 0.160210 0.949729
vt 0.157230 0.950631
vt 0.163140 0.937278
vt 0.163935 0.940382
vt 0.172127 0.967080
vt 0.156985 0.940377
vt 0.158948 0.925950
vt 0.161955 0.937163
vt 0.159192 0.936204
vt 0.178212 0.967633
vt 0.170662 0.948525
vt 0.176747 0.949078
vt 0.171150 0.957803
vt 0.190978 0.952522
vt 0.190087 0.956208
vt 0.186470 0.946651
vt 0.189296 0.941719
vt 0.191625 0.941751
vt 0.192516 0.938064
vt 0.191901 0.943909
vn 0.0070 0.8781 -0.4785
vn 0.9841 0.1605 0.0765
vn 0.1421 -0.9345 -0.3263
vn 0.9982 0.0407 0.0447
vn -0.0132 0.2326 -0.9725
vn 0.0055 -0.2725 0.9621
vn -0.1733 0.4501 0.8760
vn -0.0129 -0.2962 0.9550
vn 0.0031 0.6056 0.7958
vn 0.9948 0.1016 0.0037
vn 0.0826 -0.7891 -0.6087
vn 0.9862 0.1519 0.0660
vn 0.3927 0.9125 -0.1145
vn 0.9185 0.3733 -0.1308
vn 0.9014 -0.4134 -0.1284
vn 0.3832 -0.9138 -0.1345
vn -0.1199 0.0128 0.9927
vn 0.0167 -0.0380 -0.9991
vn 0.0154 0.0156 -0.9998
vn 0.0112 0.0275 -0.9996
vn -0.0161 0.0037 -0.9999
vn 0.0878 -0.9951 -0.0451
vn 0.6624 0.7450 -0.0789
vn 0.2565 -0.9662 0.0276
vn 0.9430 0.3284 -0.0533
vn 0.0007 0.4545 -0.8907
vn 0.0315 -0.2924 0.9558
vn 0.1150 -0.7929 0.5984
vn 0.1894 0.6131 -0.7670
vn 0.8694 -0.3324 -0.3656
vn 0.5261 -0.8481 0.0626
vn 0.2992 0.9496 -0.0935
vn 0.5384 0.8347 -0.1157
vn 0.9095 -0.4157 -0.0022
vn 0.0674 -0.5490 -0.8331
vn -0.1126 0.9529 -0.2816
vn 0.8389 -0.5440 0.0161
vn 0.9637 0.0068 -0.2668
vn -0.0074 -0.8751 -0.4839
vn 0.3630 -0.8249 0.4333
vn 0.8430 -0.2777 -0.4606
vn -0.0003 -0.0042 -1.0000
vn 0.0136 -0.3177 0.9481
vn 0.1803 0.9784 -0.1008
vn 0.1689 -0.3969 0.9022
vn -0.1653 -0.7235 -0.6702
vn 0.9999 0.0135 -0.0012
vn 0.3837 -0.0563 0.9218
vn 0.9868 0.1613 -0.0152
vn 0.0310 0.1003 -0.9945
vn 0.3041 -0.8873 0.3468
vn 0.0192 0.1676 -0.9857
vn 0.3321 -0.1177 0.9359
vn 0.2487 0.9599 0.1295
vn 0.9948 -0.0986 0.0268
vn 0.0428 0.9955 -0.0849
vn 0.0181 0.4549 0.8903
vn 0.3141 -0.9418 -0.1197
vn 0.9805 -0.1773 -0.0843
vn 0.0069 0.0204 0.9998
vn 0.8021 -0.2455 -0.5443
vn 0.6462 -0.7282 -0.2283
vn 0.1898 0.9582 0.2141
vn 0.7953 -0.5315 -0.2916
vn 0.1703 0.7414 0.6492
vn 0.7571 -0.1245 -0.6413
vn -0.0070 0.8781 -0.4785
vn -0.9841 0.1605 0.0765
vn -0.1421 -0.9345 -0.3263
vn -0.9982 0.0407 0.0447
vn 0.0132 0.2326 -0.9725
vn -0.0055 -0.2725 0.9621
vn 0.1733 0.4501 0.8760
vn 0.0129 -0.2962 0.9550
vn -0.0031 0.6056 0.7958
vn -0.9948 0.1016 0.0037
vn -0.0826 -0.7891 -0.6087
vn -0.9862 0.1519 0.0660
vn -0.3927 0.9125 -0.1145
vn -0.9185 0.3733 -0.1308
vn -0.9014 -0.4134 -0.1284
vn -0.3832 -0.9138 -0.1345
vn 0.1199 0.0128 0.9927
vn -0.0167 -0.0380 -0.9991
vn -0.0154 0.0156 -0.9998
vn -0.0112 0.0275 -0.9996
vn 0.0161 0.0037 -0.9999
vn -0.0878 -0.9951 -0.0451
vn -0.6624 0.7450 -0.0789
vn -0.2565 -0.9662 0.0276
vn -0.9430 0.3284 -0.0533
vn -0.0007 0.4545 -0.8907
vn -0.0315 -0.2924 0.9558
vn -0.1150 -0.7929 0.5984
vn -0.1894 0.6131 -0.7670
vn -0.8694 -0.3324 -0.3656
vn -0.5261 -0.8481 0.0626
vn -0.2992 0.9496 -0.0935
vn -0.5384 0.8347 -0.1157
vn -0.9095 -0.4157 -0.0022
vn -0.0674 -0.5490 -0.8331
vn 0.1126 0.9529 -0.2816
vn -0.8389 -0.5440 0.0161
vn -0.9637 0.0068 -0.2668
vn 0.0074 -0.8751 -0.4839
vn -0.3630 -0.8249 0.4333
vn -0.8430 -0.2777 -0.4606
vn 0.0003 -0.0042 -1.0000
vn -0.0136 -0.3177 0.9481
vn -0.1803 0.9784 -0.1008
vn -0.1689 -0.3969 0.9022
vn 0.1653 -0.7235 -0.6702
vn -0.9999 0.0135 -0.0012
vn -0.3837 -0.0563 0.9218
vn -0.9868 0.1613 -0.0152
vn -0.0310 0.1003 -0.9945
vn -0.3041 -0.8873 0.3468
vn -0.0192 0.1676 -0.9857
vn -0.3321 -0.1177 0.9359
vn -0.2487 0.9599 0.1295
vn -0.9948 -0.0986 0.0268
vn -0.0428 0.9955 -0.0849
vn -0.0181 0.4549 0.8903
vn -0.3141 -0.9418 -0.1197
vn -0.9805 -0.1773 -0.0843
vn -0.0069 0.0204 0.9998
vn -0.8021 -0.2455 -0.5443
vn -0.6462 -0.7282 -0.2283
vn -0.1898 0.9582 0.2141
vn -0.7953 -0.5315 -0.2916
vn -0.1703 0.7414 0.6492
vn -0.7571 -0.1245 -0.6413
usemtl Material.001
s off
f 12/1/1 87/2/1 88/3/1 4/4/1 5/5/1
f 15/6/2 14/7/2 2/8/2 6/9/2
f 17/10/3 13/11/3 1/12/3 9/13/3
f 13/14/4 15/6/4 6/9/4 1/15/4
f 7/16/5 12/1/5 5/5/5 3/17/5
f 1/18/6 6/19/6 11/20/6 9/21/6
f 14/22/7 16/23/7 10/24/7 2/25/7
f 6/19/8 2/26/8 10/27/8 78/28/8 80/29/8 79/30/8 77/31/8 11/20/8
f 4/32/9 88/33/9 8/34/9 16/23/9 14/22/9 52/35/9
f 3/36/10 5/37/10 15/6/10 13/14/10
f 7/38/11 3/39/11 13/11/11 17/10/11
f 5/37/12 4/40/12 52/41/12 14/7/12 15/6/12
f 18/42/13 19/43/13 21/44/13 20/45/13
f 20/45/14 21/44/14 23/46/14 22/47/14
f 22/48/15 23/49/15 25/50/15 24/51/15
f 24/51/16 25/50/16 27/52/16 26/53/16
f 21/54/17 19/55/17 27/56/17 25/57/17 23/58/17
f 24/59/18 26/60/18 42/61/18 41/62/18 31/63/18
f 20/64/19 22/65/19 39/66/19 38/67/19 29/68/19
f 18/69/20 20/64/20 29/68/20 37/70/20 36/71/20
f 22/65/21 24/59/21 31/63/21 40/72/21 39/66/21
f 46/73/22 52/74/22 59/75/22 60/76/22
f 37/77/23 44/78/23 28/79/23 36/80/23
f 31/81/24 41/82/24 48/83/24 47/84/24 61/85/24 63/86/24 64/87/24 62/88/24 35/89/24 82/90/24 34/91/24
f 29/92/25 38/93/25 45/94/25 50/95/25
f 33/96/26 45/97/26 30/98/26
f 50/99/27 45/100/27 56/101/27 55/102/27
f 34/103/28 82/104/28 10/105/28 2/106/28
f 43/107/29 28/79/29 44/78/29
f 46/108/30 34/103/30 2/106/30 14/109/30
f 46/110/31 30/111/31 39/112/31 40/113/31
f 43/114/32 44/115/32 37/116/32 29/92/32 50/95/32 49/117/32
f 45/97/33 38/118/33 39/119/33 30/98/33
f 46/120/34 40/121/34 31/81/34 34/91/34
f 47/122/35 48/123/35 32/124/35
f 46/125/36 33/96/36 30/98/36
f 48/126/37 41/127/37 42/128/37 32/129/37
f 55/130/38 56/131/38 57/132/38 60/133/38 59/134/38 53/135/38 58/136/38
f 4/137/39 88/138/39 86/139/39 53/140/39
f 33/141/40 46/73/40 60/76/40 57/142/40
f 52/143/41 46/108/41 14/109/41
f 51/144/42 58/136/42 53/135/42 86/145/42 90/146/42 89/147/42
f 49/148/43 50/99/43 55/102/43 54/149/43
f 54/150/44 55/151/44 58/152/44 51/153/44
f 45/100/45 33/141/45 57/142/45 56/101/45
f 52/74/46 4/137/46 53/140/46 59/75/46
f 68/154/47 67/155/47 71/156/47 72/157/47
f 63/158/48 61/159/48 65/160/48 67/161/48
f 64/162/49 63/163/49 67/155/49 68/154/49
f 62/164/50 64/165/50 68/166/50 66/167/50
f 71/168/51 69/169/51 73/170/51 75/171/51
f 66/167/52 68/166/52 72/172/52 70/173/52
f 67/161/53 65/160/53 69/174/53 71/175/53
f 74/176/54 76/177/54 80/178/54 78/179/54
f 72/157/55 71/156/55 75/180/55 76/181/55
f 70/182/56 72/183/56 76/184/56 74/185/56
f 81/186/57 83/187/57 85/188/57
f 75/189/58 73/190/58 77/191/58 79/192/58
f 76/181/59 75/180/59 79/193/59 80/194/59
f 82/195/60 35/196/60 83/187/60 81/186/60
f 10/197/61 82/198/61 81/199/61 84/200/61
f 84/201/62 81/202/62 85/203/62
f 89/204/63 90/205/63 93/206/63 92/207/63
f 88/208/64 87/209/64 91/210/64 93/211/64 90/212/64 86/213/64
f 92/207/65 93/206/65 94/214/65
f 93/215/66 91/216/66 94/217/66
f 12/1/67 99/218/67 98/219/67 146/220/67 87/2/67
f 103/221/68 100/222/68 96/223/68 102/224/68
f 17/10/69 9/13/69 95/225/69 101/226/69
f 101/227/70 95/228/70 100/222/70 103/221/70
f 7/16/71 97/229/71 99/218/71 12/1/71
f 95/230/72 9/21/72 11/20/72 100/231/72
f 102/232/73 96/233/73 10/24/73 16/23/73
f 100/231/74 11/20/74 77/31/74 141/234/74 142/235/74 78/28/74 10/27/74 96/236/74
f 98/237/75 125/238/75 102/232/75 16/23/75 8/34/75 146/239/75
f 97/240/76 101/227/76 103/221/76 99/241/76
f 7/38/77 17/10/77 101/226/77 97/242/77
f 99/241/78 103/221/78 102/224/78 125/243/78 98/244/78
f 18/42/79 104/245/79 105/246/79 19/43/79
f 104/245/80 106/247/80 107/248/80 105/246/80
f 106/249/81 108/250/81 109/251/81 107/252/81
f 108/250/82 26/53/82 27/52/82 109/251/82
f 105/253/83 107/254/83 109/255/83 27/56/83 19/55/83
f 108/256/84 112/257/84 119/258/84 42/61/84 26/60/84
f 104/259/85 110/260/85 116/261/85 117/262/85 106/263/85
f 18/69/86 36/71/86 115/264/86 110/260/86 104/259/86
f 106/263/87 117/262/87 118/265/87 112/257/87 108/256/87
f 122/266/88 132/267/88 131/268/88 125/269/88
f 115/270/89 36/80/89 28/79/89 120/271/89
f 112/272/90 114/273/90 144/274/90 35/89/90 62/88/90 134/275/90 133/276/90 61/85/90 47/84/90 123/277/90 119/278/90
f 110/279/91 124/280/91 121/281/91 116/282/91
f 113/283/92 111/284/92 121/285/92
f 124/286/93 127/287/93 128/288/93 121/289/93
f 114/290/94 96/291/94 10/105/94 144/292/94
f 43/107/95 120/271/95 28/79/95
f 122/293/96 102/294/96 96/291/96 114/290/96
f 122/295/97 118/296/97 117/297/97 111/298/97
f 43/114/98 49/117/98 124/280/98 110/279/98 115/299/98 120/300/98
f 121/285/99 111/284/99 117/301/99 116/302/99
f 122/303/100 114/273/100 112/272/100 118/304/100
f 47/122/101 32/124/101 123/305/101
f 122/306/102 111/284/102 113/283/102
f 123/307/103 32/129/103 42/128/103 119/308/103
f 127/309/104 130/310/104 126/311/104 131/312/104 132/313/104 129/314/104 128/315/104
f 98/316/105 126/317/105 145/318/105 146/319/105
f 113/320/106 129/321/106 132/267/106 122/266/106
f 125/322/107 102/294/107 122/293/107
f 51/144/108 89/147/108 147/323/108 145/324/108 126/311/108 130/310/108
f 49/148/109 54/149/109 127/287/109 124/286/109
f 54/150/110 51/153/110 130/325/110 127/326/110
f 121/289/111 128/288/111 129/321/111 113/320/111
f 125/269/112 131/268/112 126/317/112 98/316/112
f 136/327/113 138/328/113 137/329/113 135/330/113
f 133/331/114 135/332/114 65/160/114 61/159/114
f 134/333/115 136/327/115 135/330/115 133/334/115
f 62/164/116 66/167/116 136/335/116 134/336/116
f 137/337/117 139/338/117 73/170/117 69/169/117
f 66/167/118 70/173/118 138/339/118 136/335/118
f 135/332/119 137/340/119 69/174/119 65/160/119
f 74/176/120 78/179/120 142/341/120 140/342/120
f 138/328/121 140/343/121 139/344/121 137/329/121
f 70/182/122 74/185/122 140/345/122 138/346/122
f 143/347/123 85/188/123 83/187/123
f 139/348/124 141/349/124 77/191/124 73/190/124
f 140/343/125 142/350/125 141/351/125 139/344/125
f 144/352/126 143/347/126 83/187/126 35/196/126
f 10/197/127 84/200/127 143/353/127 144/354/127
f 84/201/128 85/203/128 143/355/128
f 89/204/129 92/207/129 148/356/129 147/357/129
f 146/358/130 145/359/130 147/360/130 148/361/130 91/210/130 87/209/130
f 92/207/131 94/214/131 148/356/131
f 148/362/132 94/217/132 91/216/132
o Cube.002_Cube.004
v -0.000000 0.230297 -0.360925
v 0.173176 0.161309 -0.360925
v 0.233363 -0.001153 -0.360925
v 0.173176 -0.153452 -0.360925
v -0.000000 -0.219052 -0.360925
v 0.173176 0.161309 0.073002
v 0.000000 0.230297 0.073002
v 0.233363 -0.001153 0.073002
v 0.173176 -0.153452 0.073002
v 0.000000 -0.219052 0.073002
v 0.111732 0.061584 0.182282
v 0.000000 0.091317 0.182282
v 0.137672 -0.008437 0.182282
v 0.111732 -0.074077 0.182282
v 0.000000 -0.102350 0.182282
v 0.000000 0.003590 0.845123
v -0.173176 0.161309 -0.360925
v -0.233363 -0.001153 -0.360925
v -0.173176 -0.153452 -0.360925
v -0.173176 0.161309 0.073002
v -0.233363 -0.001153 0.073002
v -0.173176 -0.153452 0.073002
v -0.111732 0.061584 0.182282
v -0.137672 -0.008437 0.182282
v -0.111732 -0.074077 0.182282
vt 0.179887 0.940989
vt 0.168477 0.940989
vt 0.157780 0.940989
vt 0.153172 0.940989
vt 0.184733 0.940989
vt 0.154403 0.974674
vt 0.159010 0.974674
vt 0.164585 0.982349
vt 0.162599 0.982349
vt 0.157165 0.946219
vt 0.167861 0.946219
vt 0.167861 0.967907
vt 0.157165 0.967907
vt 0.179272 0.946219
vt 0.184118 0.946219
vt 0.184118 0.967907
vt 0.179272 0.967907
vt 0.152557 0.946219
vt 0.152557 0.967907
vt 0.164163 0.984469
vt 0.166822 0.984469
vt 0.167309 0.996111
vt 0.169707 0.974674
vt 0.181118 0.974674
vt 0.174113 0.982349
vt 0.169195 0.982349
vt 0.185963 0.974674
vt 0.176202 0.982349
vt 0.169658 0.984469
vt 0.170862 0.984469
vt 0.163018 0.984469
vt 0.179272 0.946219
vt 0.157165 0.946219
vt 0.167861 0.946219
vt 0.164585 0.982349
vt 0.159010 0.974674
vt 0.157165 0.967907
vt 0.167861 0.967907
vt 0.179272 0.967907
vt 0.164163 0.984469
vt 0.166822 0.984469
vt 0.169707 0.974674
vt 0.169195 0.982349
vt 0.174113 0.982349
vt 0.181118 0.974674
vt 0.169658 0.984469
vn 0.0000 0.0000 -1.0000
vn 0.2280 -0.6920 0.6849
vn 0.9300 -0.3675 0.0000
vn 0.3701 0.9290 -0.0000
vn 0.3542 -0.9352 0.0000
vn 0.9377 0.3474 -0.0000
vn 0.9120 -0.3604 0.1960
vn 0.7165 0.2654 0.6451
vn 0.7298 -0.2884 0.6198
vn 0.2176 0.6281 0.7471
vn 0.2551 0.9586 0.1269
vn 0.2424 -0.9580 0.1531
vn 0.9215 0.3414 0.1852
vn -0.2280 -0.6920 0.6849
vn -0.9300 -0.3675 0.0000
vn -0.3701 0.9290 -0.0000
vn -0.3542 -0.9352 0.0000
vn -0.9377 0.3474 -0.0000
vn -0.9120 -0.3604 0.1960
vn -0.7165 0.2654 0.6451
vn -0.7298 -0.2884 0.6198
vn -0.2176 0.6281 0.7471
vn -0.2551 0.9586 0.1269
vn -0.2424 -0.9580 0.1531
vn -0.9215 0.3414 0.1852
usemtl Material.001
s off
f 150/363/133 151/364/133 152/365/133 153/366/133 149/367/133
f 158/368/134 157/369/134 162/370/134 163/371/134
f 152/372/135 151/373/135 156/374/135 157/375/135
f 150/376/136 149/377/136 155/378/136 154/379/136
f 153/380/137 152/372/137 157/375/137 158/381/137
f 151/373/138 150/376/138 154/379/138 156/374/138
f 162/382/139 161/383/139 164/384/139
f 156/385/140 154/386/140 159/387/140 161/388/140
f 157/369/141 156/385/141 161/388/141 162/370/141
f 154/386/142 155/389/142 160/390/142 159/387/142
f 159/391/143 160/392/143 164/384/143
f 163/393/144 162/382/144 164/384/144
f 161/383/145 159/391/145 164/384/145
f 165/394/133 149/377/133 153/380/133 167/395/133 166/396/133
f 158/368/146 163/371/146 173/397/146 170/398/146
f 167/395/147 170/399/147 169/400/147 166/396/147
f 165/394/148 168/401/148 155/378/148 149/377/148
f 153/380/149 158/381/149 170/399/149 167/395/149
f 166/396/150 169/400/150 168/401/150 165/394/150
f 173/402/151 164/384/151 172/403/151
f 169/404/152 172/405/152 171/406/152 168/407/152
f 170/398/153 173/397/153 172/405/153 169/404/153
f 168/407/154 171/406/154 160/390/154 155/389/154
f 171/408/155 164/384/155 160/392/155
f 163/393/156 164/384/156 173/402/156
f 172/403/157 164/384/157 171/408/157
o Cylinder.001_Cylinder.002
v 0.113952 -0.183695 0.371392
v 0.159163 -0.232036 0.109151
v 0.047227 -0.148244 0.367938
v 0.054072 -0.175367 0.085277
v 0.006851 -0.046902 0.376921
v -0.008240 -0.011592 0.079315
v 0.016222 0.060762 0.394184
v 0.002097 0.178028 0.126427
v 0.070082 0.111860 0.408577
v 0.088009 0.257518 0.160566
v 0.136786 0.076403 0.412101
v 0.197097 0.203326 0.155403
v 0.177285 -0.024790 0.402248
v 0.267495 0.024181 0.120289
v 0.167812 -0.132600 0.385857
v 0.249049 -0.150070 0.114250
v 0.140169 -0.224109 0.230161
v 0.041447 -0.171859 0.198464
v -0.016888 -0.027587 0.195942
v -0.006016 0.144619 0.241805
v 0.075441 0.218835 0.279033
v 0.179976 0.168748 0.269444
v 0.246162 0.006540 0.235032
v 0.227506 -0.147720 0.226111
v 0.103913 -0.070970 0.103956
v 0.150897 -0.090644 0.115450
v 0.070352 -0.004064 0.100225
v 0.066298 0.077300 0.119176
v 0.099094 0.115122 0.134183
v 0.147951 0.096636 0.132573
v 0.185845 0.023286 0.119174
v 0.185557 -0.051634 0.117352
v 0.116770 -0.059029 0.005942
v 0.164170 -0.078878 0.017566
v 0.082865 0.008449 0.002334
v 0.078820 0.090573 0.021282
v 0.111906 0.128731 0.036450
v 0.161205 0.110082 0.034802
v 0.199437 0.036055 0.021465
v 0.199146 -0.039520 0.019461
v 0.071805 -0.146696 -0.009815
v 0.167834 -0.199332 0.011920
v 0.015721 0.003927 -0.015047
v 0.026518 0.177741 0.028285
v 0.105885 0.250007 0.059563
v 0.205567 0.199625 0.054698
v 0.268915 0.034873 0.022304
v 0.250829 -0.124815 0.016594
v 0.350553 -0.154271 -0.325294
v 0.226247 -0.262481 -0.332236
v 0.282973 0.330248 -0.268468
v 0.377646 0.084199 -0.316717
v 0.015584 0.297567 -0.307912
v 0.134606 0.402572 -0.262041
v 0.083207 -0.186947 -0.364732
v -0.000640 0.037964 -0.372521
v 0.188193 -0.236464 -0.095471
v 0.312536 0.050941 -0.082451
v 0.112170 0.315026 -0.037060
v 0.001162 0.012884 -0.128384
v 0.290284 -0.145416 -0.089505
v 0.234632 0.253536 -0.042677
v 0.014462 0.226627 -0.075155
v 0.070147 -0.172322 -0.121979
v 0.092283 -0.200893 -0.551506
v 0.255507 -0.280094 -0.516152
v -0.004269 0.055968 -0.555422
v 0.014767 0.353807 -0.485622
v 0.152217 0.467010 -0.434954
v 0.320929 0.391227 -0.440458
v 0.428710 0.108888 -0.491550
v 0.398445 -0.163473 -0.506341
v 0.371734 -0.180768 -0.331324
v 0.295715 0.363216 -0.266715
v -0.004532 0.326519 -0.311007
v 0.071485 -0.217465 -0.375616
v 0.232620 -0.300767 -0.343702
v 0.401421 0.086332 -0.316812
v 0.129649 0.443918 -0.262675
v -0.023210 0.034432 -0.379453
v 0.096403 -0.196897 -0.577845
v 0.259022 -0.277556 -0.542080
v 0.155714 0.469668 -0.460868
v 0.019235 0.355309 -0.512258
v 0.324021 0.392560 -0.467297
v 0.401189 -0.159645 -0.532884
v 0.107019 -0.191937 0.425260
v 0.059062 0.117817 0.477556
v -0.060118 0.143263 -0.157339
v 0.035726 0.155730 -0.142946
v -0.069039 0.181208 -0.128581
v 0.026680 0.193673 -0.114201
v -0.073657 0.173789 -0.083002
v 0.021532 0.186175 -0.068710
v -0.069541 0.128928 -0.066058
v 0.025288 0.141250 -0.051832
v -0.060837 0.091273 -0.094266
v 0.034302 0.103600 -0.080355
v -0.056142 0.098211 -0.139832
v 0.039593 0.110597 -0.125965
v -0.108139 0.058856 -0.175922
v -0.151365 0.050154 -0.159425
v -0.155562 0.043483 -0.113743
v -0.116899 0.045454 -0.084640
v -0.073634 0.054107 -0.101037
v -0.069042 0.060837 -0.146628
v -0.091211 -0.055606 -0.190308
v -0.134504 -0.063860 -0.173759
v -0.138784 -0.069905 -0.128000
v -0.100143 -0.067720 -0.098869
v -0.056824 -0.059419 -0.115307
v -0.052143 -0.053341 -0.160978
v -0.012358 -0.106210 -0.187150
v -0.009010 -0.150964 -0.168825
v -0.013955 -0.156502 -0.123007
v -0.022273 -0.117844 -0.095523
v -0.025691 -0.073537 -0.113438
v -0.020821 -0.067534 -0.159103
v 0.101389 -0.091380 -0.170391
v 0.104584 -0.136138 -0.152091
v 0.098987 -0.141773 -0.106363
v 0.090225 -0.103193 -0.078937
v 0.087080 -0.058768 -0.097097
v 0.092652 -0.052607 -0.142814
vt 0.204047 0.909739
vt 0.205733 0.919357
vt 0.200548 0.920787
vt 0.199291 0.911792
vt 0.199291 0.921020
vt 0.200548 0.930015
vt 0.187778 0.931489
vt 0.187876 0.922077
vt 0.173429 0.930001
vt 0.174707 0.920487
vt 0.177783 0.937097
vt 0.176505 0.946611
vt 0.171219 0.945619
vt 0.172775 0.935773
vt 0.176505 0.946611
vt 0.177783 0.937097
vt 0.174707 0.920487
vt 0.173429 0.930001
vt 0.187778 0.931489
vt 0.187876 0.922077
vt 0.167411 0.917778
vt 0.172697 0.918770
vt 0.180913 0.918817
vt 0.178330 0.918388
vt 0.200548 0.930015
vt 0.199291 0.921020
vt 0.199291 0.911792
vt 0.200548 0.920787
vt 0.198729 0.890892
vt 0.195341 0.890857
vt 0.187164 0.890771
vt 0.178986 0.890686
vt 0.175598 0.890651
vt 0.178986 0.890686
vt 0.187164 0.890771
vt 0.195341 0.890857
vt 0.188023 0.907929
vt 0.196201 0.908014
vt 0.179845 0.907844
vt 0.196201 0.898786
vt 0.199684 0.894481
vt 0.196689 0.888727
vt 0.200077 0.888762
vt 0.200172 0.884421
vt 0.188023 0.907929
vt 0.179845 0.907844
vt 0.196201 0.908014
vt 0.176946 0.888522
vt 0.180333 0.888557
vt 0.175749 0.883125
vt 0.192851 0.881571
vt 0.187271 0.882202
vt 0.187312 0.890082
vt 0.192892 0.889451
vt 0.199815 0.918784
vt 0.187045 0.920259
vt 0.186231 0.919446
vt 0.191811 0.918815
vt 0.187045 0.920259
vt 0.199815 0.918784
vt 0.192472 0.918822
vt 0.187165 0.919456
vt 0.172697 0.918770
vt 0.180252 0.918810
vt 0.205000 0.917355
vt 0.194351 0.918206
vt 0.187695 0.923674
vt 0.193001 0.923040
vt 0.199070 0.923007
vt 0.187448 0.924346
vt 0.180985 0.887410
vt 0.179062 0.886988
vt 0.179103 0.894868
vt 0.181026 0.895290
vt 0.181645 0.887417
vt 0.187898 0.888056
vt 0.187939 0.895936
vt 0.181686 0.895297
vt 0.193512 0.881578
vt 0.195391 0.880962
vt 0.195433 0.888842
vt 0.193553 0.889458
vt 0.186964 0.888046
vt 0.187005 0.895926
vt 0.188205 0.882211
vt 0.188247 0.890091
vt 0.192341 0.923033
vt 0.186761 0.923664
vt 0.187590 0.924348
vt 0.199171 0.923008
vt 0.180782 0.923028
vt 0.178859 0.922606
vt 0.169682 0.922094
vt 0.174534 0.922996
vt 0.181442 0.923035
vt 0.174434 0.922995
vt 0.194881 0.922424
vt 0.203831 0.921709
vt 0.201517 0.992015
vt 0.208297 0.990166
vt 0.211200 0.990656
vt 0.203598 0.992396
vt 0.166573 0.991998
vt 0.159663 0.990713
vt 0.156649 0.991087
vt 0.164403 0.992317
vt 0.184965 0.993922
vt 0.185036 0.994174
vt 0.185167 0.993924
vt 0.185263 0.994177
vt 0.166430 0.991997
vt 0.164242 0.992316
vt 0.201935 0.930001
vt 0.207712 0.928425
vt 0.211344 0.946175
vt 0.204564 0.948024
vt 0.172038 0.946262
vt 0.187832 0.947903
vt 0.188012 0.966208
vt 0.169477 0.964283
vt 0.170998 0.955177
vt 0.165109 0.954083
vt 0.161547 0.971913
vt 0.168458 0.973198
vt 0.202057 0.946279
vt 0.188004 0.947905
vt 0.188214 0.966210
vt 0.204707 0.964302
vt 0.201935 0.946278
vt 0.204564 0.964301
vt 0.170876 0.955176
vt 0.168315 0.973196
vt 0.172160 0.946264
vt 0.169620 0.964284
vt 0.202057 0.930002
vt 0.204707 0.948025
vt 0.204075 0.920325
vt 0.199415 0.921624
vt 0.187835 0.939241
vt 0.174778 0.937888
vt 0.168763 0.945900
vt 0.173515 0.946801
vt 0.187692 0.939239
vt 0.199315 0.937900
vt 0.199415 0.937901
vt 0.173616 0.946802
vt 0.174678 0.937887
vt 0.199315 0.921623
vt 0.214862 0.978937
vt 0.207421 0.980679
vt 0.207330 0.993326
vt 0.214702 0.991600
vt 0.201660 0.992016
vt 0.203759 0.992398
vt 0.203177 0.968134
vt 0.203271 0.968135
vt 0.192438 0.969177
vt 0.192305 0.969175
vt 0.188925 0.982458
vt 0.168065 0.980599
vt 0.168339 0.993246
vt 0.189006 0.995088
vt 0.160311 0.979368
vt 0.167904 0.980597
vt 0.168180 0.993245
vt 0.160657 0.992027
vt 0.188698 0.982456
vt 0.207260 0.980677
vt 0.207171 0.993324
vt 0.188781 0.995086
vt 0.168244 0.995116
vt 0.160721 0.993899
vt 0.210043 0.963485
vt 0.209884 0.963483
vt 0.209948 0.965355
vt 0.210107 0.965356
vt 0.180220 0.968087
vt 0.180126 0.968087
vt 0.170957 0.965275
vt 0.171116 0.965277
vt 0.163434 0.964057
vt 0.217479 0.963630
vt 0.168403 0.995118
vt 0.170893 0.963403
vt 0.171052 0.963405
vt 0.214767 0.993472
vt 0.207235 0.995196
vt 0.207394 0.995198
vt 0.178336 0.919022
vt 0.182921 0.924454
vt 0.196689 0.888727
vt 0.182921 0.924454
vt 0.180333 0.888557
vt 0.196201 0.898786
vt 0.189863 0.922259
vt 0.189863 0.922259
vt 0.188015 0.925460
vt 0.188015 0.925460
vt 0.184319 0.925460
vt 0.184319 0.925460
vt 0.182472 0.922259
vt 0.182472 0.922259
vt 0.181983 0.906878
vt 0.181983 0.906878
vt 0.183831 0.903678
vt 0.183831 0.903678
vt 0.188015 0.919059
vt 0.184319 0.919059
vt 0.187527 0.903678
vt 0.187527 0.903678
vt 0.189374 0.906878
vt 0.189374 0.906878
vt 0.182122 0.907096
vt 0.185818 0.907096
vt 0.185818 0.904388
vt 0.182122 0.904388
vt 0.189863 0.916351
vt 0.188015 0.916351
vt 0.188015 0.907535
vt 0.189863 0.907535
vt 0.182472 0.916351
vt 0.184319 0.916351
vt 0.187666 0.910296
vt 0.187666 0.904388
vt 0.180274 0.910296
vt 0.180274 0.904388
vt 0.184563 0.900455
vt 0.188259 0.900455
vt 0.188259 0.899069
vt 0.184563 0.899069
vt 0.188259 0.909271
vt 0.190107 0.909271
vt 0.190107 0.900455
vt 0.182716 0.909271
vt 0.184563 0.909271
vt 0.182716 0.900455
vt 0.184319 0.907535
vt 0.182472 0.907535
vt 0.190107 0.895868
vt 0.190107 0.895868
vt 0.188259 0.899069
vt 0.184319 0.902921
vt 0.182472 0.902921
vt 0.182472 0.898335
vt 0.184319 0.895134
vt 0.189863 0.902921
vt 0.188015 0.902921
vt 0.188015 0.895134
vt 0.189863 0.898335
vt 0.182716 0.895868
vt 0.189863 0.902949
vt 0.188015 0.899748
vt 0.184319 0.899748
vt 0.182472 0.902949
vt 0.184319 0.906149
vt 0.188015 0.906149
vt 0.184563 0.899069
vt 0.182716 0.895868
vt 0.184319 0.895134
vt 0.188015 0.895134
vt 0.182472 0.898335
vt 0.189863 0.898335
vn 0.4670 0.8840 0.0199
vn 0.9250 0.3652 0.1055
vn 0.9957 -0.0729 0.0564
vn 0.7029 -0.6948 -0.1520
vn -0.4333 -0.8423 -0.3207
vn -0.9191 -0.3214 -0.2278
vn -0.2037 -0.1958 0.9593
vn -0.9771 0.1184 -0.1769
vn -0.6586 0.7380 -0.1472
vn 0.1274 0.1423 -0.9816
vn -0.9245 0.1337 -0.3569
vn -0.8624 -0.2782 -0.4229
vn -0.7604 0.5554 -0.3367
vn -0.4528 -0.8708 -0.1915
vn 0.9882 -0.0381 -0.1481
vn 0.9240 0.3735 -0.0824
vn -0.6544 0.7372 -0.1682
vn -0.9906 0.0073 -0.1367
vn -0.0071 -0.0310 0.9995
vn -0.2450 -0.0612 0.9676
vn -0.0440 -0.1872 0.9813
vn -0.0140 -0.0434 0.9990
vn -0.2525 -0.0555 0.9660
vn -0.2372 -0.2249 0.9451
vn -0.0181 -0.1962 0.9804
vn 0.2381 0.0589 -0.9695
vn -0.3535 -0.9191 -0.1743
vn 0.9914 0.0191 0.1293
vn 0.3481 0.9240 0.1583
vn -0.7468 0.6647 -0.0214
vn -0.8870 -0.4257 -0.1789
vn 0.7540 -0.6568 0.0074
vn 0.8770 0.4495 0.1697
vn 0.0063 0.0323 -0.9995
vn 0.0459 0.1917 -0.9804
vn 0.2370 0.2238 -0.9454
vn 0.2501 0.0498 -0.9669
vn 0.0125 0.0447 -0.9989
vn 0.0247 0.1982 -0.9799
vn 0.2040 0.1957 -0.9592
vn 0.3315 0.2681 -0.9046
vn -0.0247 0.0176 -0.9995
vn 0.3661 0.1146 -0.9235
vn -0.0974 0.1478 -0.9842
vn 0.3357 0.2007 -0.9203
vn 0.4758 0.8792 -0.0238
vn 0.9982 -0.0589 -0.0133
vn -0.4250 -0.8270 -0.3681
vn -0.9610 0.1180 -0.2502
vn 0.9363 0.3499 0.0292
vn 0.6946 -0.6901 -0.2032
vn -0.9099 -0.2923 -0.2943
vn -0.6428 0.7425 -0.1885
vn -0.6100 0.7051 -0.3616
vn -0.8773 -0.2578 -0.4048
vn 0.6997 -0.6120 -0.3686
vn 0.9341 0.3447 -0.0927
vn -0.9231 0.1177 -0.3662
vn -0.4010 -0.7466 -0.5308
vn 0.9911 -0.0294 -0.1295
vn 0.5034 0.8412 -0.1976
vn -0.6423 0.7664 -0.0079
vn -0.1044 0.0571 -0.9929
vn 0.3032 0.0577 -0.9512
vn -0.1139 0.2136 -0.9703
vn -0.1413 -0.0380 0.9892
vn -0.9286 -0.3208 -0.1865
vn 0.6534 -0.7564 -0.0310
vn 0.9258 0.3502 0.1425
vn -0.9834 0.1168 -0.1385
vn -0.4202 -0.8875 -0.1891
vn 0.9916 -0.0859 0.0962
vn 0.4182 0.8962 0.1483
vn 0.6310 -0.7750 0.0343
vn 0.1388 -0.9821 -0.1273
vn -0.1161 -0.2196 0.9687
vn -0.1027 -0.3032 0.9474
vn -0.1587 0.1149 0.9806
vn -0.4137 -0.9025 -0.1200
vn -0.1263 0.9914 0.0347
vn 0.4036 0.8988 0.1713
vn -0.6359 0.7716 0.0178
vn -0.6467 0.7273 -0.2298
vn -0.4207 -0.7940 -0.4388
vn 0.7130 -0.6469 -0.2704
vn 0.4824 0.8738 -0.0621
vn -0.7001 -0.4839 -0.5252
vn 0.6911 -0.7224 -0.0216
vn 0.9187 -0.2737 -0.2847
vn 0.4694 0.8830 -0.0013
vn 0.6610 0.7398 -0.1256
vn -0.0396 -0.6094 0.7919
vn 0.1490 -0.9783 -0.1443
vn 0.1821 -0.3326 -0.9253
vn 0.0388 0.6071 -0.7937
vn -0.9820 -0.1334 -0.1337
vn -0.1464 0.9801 0.1338
vn -0.1801 0.3376 0.9239
vn -0.9418 0.3330 -0.0460
vn 0.3668 -0.0624 0.9282
vn 0.4334 -0.4423 0.7852
vn 0.6188 -0.1988 -0.7600
vn -0.6443 0.1667 0.7464
vn -0.4604 0.3965 -0.7942
vn 0.8468 -0.5320 -0.0003
vn -0.3994 -0.9025 -0.1611
vn -0.5831 -0.1857 0.7909
vn -0.3646 0.0628 -0.9290
vn 0.9852 0.1319 0.1097
vn -0.9843 -0.1308 -0.1184
vn 0.5848 0.1858 -0.7896
vn -0.0403 -0.5888 0.8073
vn 0.4347 0.6037 -0.6683
vn 0.2367 0.4032 0.8840
vn -0.4013 -0.6308 0.6641
vn -0.2058 -0.4208 -0.8835
vn 0.5586 0.8140 0.1592
vn -0.9827 -0.1255 -0.1362
vn 0.1807 -0.3589 -0.9157
vn -0.1437 0.9842 0.1036
vn 0.1455 -0.9828 -0.1142
vn 0.0431 0.5852 -0.8098
vn -0.1818 0.3610 0.9147
usemtl Material.003
s off
f 190/409/158 175/410/158 177/411/158 191/412/158
f 191/413/159 177/414/159 179/415/159 192/416/159
f 192/416/160 179/415/160 181/417/160 193/418/160
f 193/419/161 181/420/161 183/421/161 194/422/161
f 194/422/162 183/421/162 185/423/162 195/424/162
f 195/425/163 185/426/163 187/427/163 196/428/163
f 183/429/164 181/430/164 201/431/164 202/432/164
f 196/428/165 187/427/165 189/433/165 197/434/165
f 197/435/166 189/436/166 175/410/166 190/409/166
f 174/437/167 176/438/167 178/439/167 180/440/167 182/441/167 184/442/167 186/443/167 188/444/167
f 186/445/168 196/428/168 197/434/168 188/446/168
f 184/447/169 195/425/169 196/428/169 186/445/169
f 188/448/170 197/435/170 260/449/170
f 176/450/171 174/451/171 260/452/171
f 178/453/172 192/416/172 193/418/172 180/454/172
f 176/455/173 191/413/173 192/416/173 178/453/173
f 182/456/174 180/457/174 261/458/174
f 205/459/175 204/460/175 212/461/175 213/462/175
f 189/463/176 187/464/176 204/465/176 205/466/176
f 179/467/177 177/468/177 198/469/177 200/470/177
f 185/471/178 183/429/178 202/432/178 203/472/178
f 175/473/179 189/463/179 205/466/179 199/474/179
f 177/468/180 175/473/180 199/474/180 198/469/180
f 181/430/181 179/467/181 200/470/181 201/431/181
f 187/464/182 185/471/182 203/472/182 204/465/182
f 208/475/183 206/476/183 214/477/183 216/478/183
f 203/479/184 202/480/184 210/481/184 211/482/184
f 201/483/185 200/484/185 208/485/185 209/486/185
f 198/487/186 199/488/186 207/489/186 206/490/186
f 199/488/187 205/459/187 213/462/187 207/489/187
f 204/491/188 203/479/188 211/482/188 212/492/188
f 202/480/189 201/483/189 209/486/189 210/481/189
f 200/493/190 198/487/190 206/490/190 208/494/190
f 213/495/191 212/496/191 220/497/191 221/498/191
f 211/499/192 210/500/192 218/501/192 219/502/192
f 209/503/193 208/475/193 216/478/193 217/504/193
f 206/476/194 207/505/194 215/506/194 214/477/194
f 207/505/195 213/495/195 221/498/195 215/506/195
f 212/496/196 211/499/196 219/502/196 220/497/196
f 210/500/197 209/503/197 217/504/197 218/501/197
f 228/507/198 223/508/198 250/509/198 249/510/198
f 224/511/199 227/512/199 252/513/199 247/514/199
f 229/515/200 228/507/200 249/510/200 253/516/200
f 225/517/201 224/511/201 247/514/201 251/518/201
f 226/519/202 229/515/202 253/516/202 248/520/202
f 237/521/203 230/522/203 223/523/203 228/524/203
f 236/525/204 233/526/204 229/527/204 226/528/204
f 235/529/205 232/530/205 227/531/205 224/532/205
f 234/533/206 231/534/206 225/535/206 222/536/206
f 233/526/207 237/537/207 228/538/207 229/527/207
f 232/530/208 236/539/208 226/540/208 227/531/208
f 231/534/209 235/541/209 224/542/209 225/535/209
f 230/522/210 234/543/210 222/544/210 223/523/210
f 215/545/211 221/546/211 234/543/211 230/522/211
f 220/547/212 219/548/212 235/541/212 231/534/212
f 218/549/213 217/550/213 236/539/213 232/530/213
f 216/551/214 214/552/214 237/537/214 233/526/214
f 221/553/215 220/547/215 231/534/215 234/533/215
f 219/554/216 218/549/216 232/530/216 235/529/216
f 217/555/217 216/551/217 233/526/217 236/525/217
f 214/556/218 215/545/218 230/522/218 237/521/218
f 250/557/219 246/558/219 245/559/219 239/560/219
f 222/561/220 225/517/220 251/518/220 246/562/220
f 227/512/221 226/519/221 248/520/221 252/513/221
f 223/508/222 222/561/222 246/562/222 250/509/222
f 238/563/223 245/564/223 244/565/223 240/566/223
f 251/567/224 247/568/224 243/569/224 244/570/224
f 252/571/225 248/572/225 241/573/225 242/574/225
f 253/575/226 249/576/226 238/577/226 240/578/226
f 246/558/227 251/567/227 244/570/227 245/559/227
f 247/568/228 252/571/228 242/574/228 243/569/228
f 248/572/229 253/575/229 240/578/229 241/573/229
f 249/576/230 250/557/230 239/560/230 238/577/230
f 242/574/231 241/573/231 257/579/231 256/580/231
f 245/581/232 238/582/232 254/583/232 259/584/232
f 240/566/233 244/565/233 243/585/233 241/586/233
f 257/587/234 258/588/234 256/589/234
f 259/584/235 254/583/235 255/590/235
f 243/569/236 242/574/236 256/580/236 258/591/236
f 241/592/237 243/593/237 258/588/237 257/587/237
f 238/577/238 239/560/238 255/594/238 254/595/238
f 239/560/239 245/559/239 259/596/239 255/594/239
f 260/449/240 197/435/240 190/409/240
f 261/597/241 194/422/241 195/424/241
f 261/597/242 193/419/242 194/422/242
f 260/449/243 190/409/243 191/412/243
f 195/424/244 184/598/244 261/597/244
f 174/451/245 188/599/245 260/452/245
f 180/600/246 193/419/246 261/597/246
f 184/601/247 182/456/247 261/458/247
f 191/412/248 176/602/248 260/449/248
f 262/603/249 263/604/249 265/605/249 264/606/249
f 264/606/250 265/605/250 267/607/250 266/608/250
f 266/608/251 267/607/251 269/609/251 268/610/251
f 268/611/252 269/612/252 271/613/252 270/614/252
f 265/605/253 263/604/253 273/615/253 271/616/253 269/609/253 267/607/253
f 270/614/254 271/613/254 273/617/254 272/618/254
f 272/618/255 273/617/255 263/619/255 262/620/255
f 270/621/256 272/622/256 279/623/256 278/624/256
f 274/625/257 275/626/257 281/627/257 280/628/257
f 262/603/258 264/606/258 275/626/258 274/625/258
f 266/608/259 268/610/259 277/629/259 276/630/259
f 272/622/260 262/631/260 274/632/260 279/623/260
f 268/633/261 270/621/261 278/624/261 277/634/261
f 264/606/262 266/608/262 276/630/262 275/626/262
f 284/635/263 285/636/263 291/637/263 290/638/263
f 279/639/264 274/640/264 280/641/264 285/636/264
f 277/642/265 278/643/265 284/635/265 283/644/265
f 275/626/266 276/630/266 282/645/266 281/627/266
f 278/643/267 279/639/267 285/636/267 284/635/267
f 276/630/268 277/629/268 283/646/268 282/645/268
f 291/637/269 286/647/269 292/648/269 297/649/269
f 282/650/270 283/651/270 289/652/270 288/653/270
f 280/654/271 281/655/271 287/656/271 286/657/271
f 285/636/272 280/641/272 286/647/272 291/637/272
f 283/644/273 284/635/273 290/638/273 289/658/273
f 281/655/274 282/650/274 288/653/274 287/656/274
f 292/659/275 293/660/275 294/661/275 295/662/275 296/663/275 297/664/275
f 289/658/276 290/638/276 296/665/276 295/666/276
f 287/656/277 288/653/277 294/667/277 293/668/277
f 290/638/278 291/637/278 297/649/278 296/665/278
f 288/653/279 289/652/279 295/669/279 294/667/279
f 286/657/280 287/656/280 293/668/280 292/670/280
o Cylinder.002_Cylinder.003
v -0.261967 -0.460977 0.125679
v -0.368267 -0.019114 0.087456
v -0.260164 0.476160 0.137114
v 0.257885 0.475143 0.138811
v 0.364364 -0.020553 0.089856
v 0.256081 -0.461995 0.127375
v 0.003111 -0.618398 0.164909
v 0.005579 0.642437 0.167749
v -0.212964 -0.376996 -0.022939
v -0.299545 -0.017100 -0.054071
v -0.211495 0.386299 -0.013624
v 0.210453 0.385470 -0.012243
v 0.297180 -0.018272 -0.052116
v 0.208985 -0.377825 -0.021557
v 0.002941 -0.505215 0.009014
v 0.004951 0.521730 0.011328
v -0.154227 -0.274748 -0.112819
v -0.217056 -0.013585 -0.135411
v -0.153161 0.279147 -0.106060
v 0.153031 0.278545 -0.105058
v 0.215965 -0.014435 -0.133992
v 0.151965 -0.275349 -0.111816
v 0.002447 -0.367791 -0.089632
v 0.003906 0.377424 -0.087953
vt 0.211153 0.956979
vt 0.187633 0.959633
vt 0.182210 0.954249
vt 0.207318 0.953171
vt 0.159697 0.955895
vt 0.155862 0.952087
vt 0.148614 0.952227
vt 0.217862 0.952996
vt 0.163660 0.991391
vt 0.186413 0.994436
vt 0.185482 0.998314
vt 0.168971 0.996105
vt 0.202446 0.989173
vt 0.181996 0.990051
vt 0.182277 0.995132
vt 0.197117 0.994495
vt 0.154633 0.988403
vt 0.162420 0.993937
vt 0.160536 0.988290
vt 0.166704 0.993854
vt 0.155475 0.979603
vt 0.148227 0.979743
vt 0.159310 0.983411
vt 0.206930 0.980687
vt 0.181822 0.981765
vt 0.187246 0.987149
vt 0.217474 0.980512
vt 0.211034 0.989030
vt 0.210765 0.984495
vt 0.205570 0.992274
vt 0.199383 0.996745
vt 0.203349 0.994391
vn 0.0031 -0.0854 -0.9963
vn 0.0035 0.0990 -0.9951
vn 0.0036 0.1757 -0.9844
vn 0.0027 -0.2375 -0.9714
vn 0.6897 -0.2197 0.6900
vn -0.6861 0.2270 0.6912
vn 0.2522 -0.5497 0.7964
vn -0.2699 -0.5444 0.7942
vn -0.4135 -0.7200 0.5573
vn 0.3916 -0.7292 0.5612
vn -0.8737 0.2498 0.4175
vn 0.8760 -0.2335 0.4220
vn -0.3817 0.7477 0.5433
vn 0.3664 0.7531 0.5464
vn -0.8811 -0.2301 0.4132
vn 0.8705 0.2463 0.4262
vn -0.0031 0.0854 0.9963
vn -0.0035 -0.0990 0.9951
vn -0.0036 -0.1757 0.9844
vn -0.0027 0.2375 0.9714
vn -0.2330 0.5665 0.7904
vn 0.2209 0.5693 0.7919
vn -0.6981 -0.2173 0.6822
vn 0.6795 0.2239 0.6987
usemtl Material.003
s off
f 298/671/281 299/672/281 302/673/281 303/674/281
f 299/672/282 300/675/282 301/676/282 302/673/282
f 300/675/283 305/677/283 301/676/283
f 303/674/284 304/678/284 298/671/284
f 308/679/285 307/680/285 315/681/285 316/682/285
f 311/683/286 310/684/286 318/685/286 319/686/286
f 313/687/287 308/679/287 316/682/287 321/688/287
f 309/689/288 313/687/288 321/688/288 317/690/288
f 301/691/289 305/692/289 313/687/289 309/689/289
f 305/692/290 300/693/290 308/679/290 313/687/290
f 303/694/291 302/695/291 310/684/291 311/683/291
f 300/693/292 299/696/292 307/680/292 308/679/292
f 304/697/293 303/694/293 311/683/293 312/698/293
f 298/699/294 304/697/294 312/698/294 306/700/294
f 302/695/295 301/691/295 309/689/295 310/684/295
f 299/696/296 298/699/296 306/700/296 307/680/296
f 314/701/297 319/686/297 318/685/297 315/681/297
f 315/681/298 318/685/298 317/690/298 316/682/298
f 316/682/299 317/690/299 321/688/299
f 319/686/300 314/701/300 320/702/300
f 312/698/301 311/683/301 319/686/301 320/702/301
f 306/700/302 312/698/302 320/702/302 314/701/302
f 310/684/303 309/689/303 317/690/303 318/685/303
f 307/680/304 306/700/304 314/701/304 315/681/304
