# Blender v3.0.1 OBJ File: 'HealthUp.blend'
# www.blender.org
mtllib HealthUp.mtl
o Health_Cube
v -0.205908 -0.728800 -0.260820
v -0.205908 0.728800 -0.260820
v -0.182648 -0.728800 0.260820
v -0.182648 0.728800 0.260820
v -0.728800 -0.207613 0.260820
v -0.728800 0.207613 0.260820
v -0.728800 0.207613 -0.260820
v -0.728800 -0.207613 -0.260820
v -0.182648 0.207613 0.260820
v -0.182648 -0.207613 0.260820
v -0.205908 0.207613 -0.260820
v -0.205908 -0.207613 -0.260820
v 0.000000 -0.728800 -0.260820
v 0.000000 0.728800 -0.260820
v 0.000000 -0.728800 0.260820
v 0.000000 0.728800 0.260820
v 0.000000 -0.207613 -0.260820
v 0.000000 0.207613 -0.260820
v 0.000000 -0.207613 0.260820
v 0.000000 0.207613 0.260820
v -0.622832 -0.622832 -0.222897
v -0.622832 -0.622832 0.222897
v -0.622832 0.207611 0.222897
v -0.622832 0.622832 0.222897
v -0.622832 0.622832 -0.222897
v -0.622832 -0.207611 -0.222897
v -0.207611 -0.622832 -0.222897
v -0.207611 0.622832 0.222897
v -0.207611 0.622832 -0.222897
v -0.207611 -0.622832 0.222897
v -0.207611 -0.207611 0.222897
v -0.207611 -0.207611 -0.222897
v -0.622832 -0.207611 0.222897
v -0.622832 0.207611 -0.222897
v -0.207611 0.207611 0.222897
v -0.207611 0.207611 -0.222897
v 0.205908 -0.728800 -0.260820
v 0.205908 0.728800 -0.260820
v 0.182648 -0.728800 0.260820
v 0.182648 0.728800 0.260820
v 0.728800 -0.207613 0.260820
v 0.728800 0.207613 0.260820
v 0.728800 0.207613 -0.260820
v 0.728800 -0.207613 -0.260820
v 0.182648 0.207613 0.260820
v 0.182648 -0.207613 0.260820
v 0.205908 0.207613 -0.260820
v 0.205908 -0.207613 -0.260820
v 0.622832 -0.622832 -0.222897
v 0.622832 -0.622832 0.222897
v 0.622832 0.207611 0.222897
v 0.622832 0.622832 0.222897
v 0.622832 0.622832 -0.222897
v 0.622832 -0.207611 -0.222897
v 0.207611 -0.622832 -0.222897
v 0.207611 0.622832 0.222897
v 0.207611 0.622832 -0.222897
v 0.207611 -0.622832 0.222897
v 0.207611 -0.207611 0.222897
v 0.207611 -0.207611 -0.222897
v 0.622832 -0.207611 0.222897
v 0.622832 0.207611 -0.222897
v 0.207611 0.207611 0.222897
v 0.207611 0.207611 -0.222897
vt 0.282999 0.771854
vt 0.282999 0.771854
vt 0.282999 0.771854
vt 0.282999 0.771854
vt 0.258306 0.785695
vt 0.258306 0.785695
vt 0.258306 0.785695
vt 0.258306 0.785695
vt 0.282999 0.815704
vt 0.282999 0.815704
vt 0.282999 0.815704
vt 0.282999 0.815704
vt 0.295733 0.843607
vt 0.288425 0.843607
vt 0.288425 0.843607
vt 0.295733 0.843607
vt 0.273808 0.828991
vt 0.288425 0.828991
vt 0.288425 0.828991
vt 0.273808 0.828991
vt 0.290307 0.819689
vt 0.290307 0.834306
vt 0.282999 0.834306
vt 0.282999 0.819689
vt 0.282224 0.812603
vt 0.282224 0.797987
vt 0.282224 0.797987
vt 0.282224 0.812603
vt 0.282999 0.786471
vt 0.282999 0.786471
vt 0.268382 0.805073
vt 0.268382 0.819689
vt 0.282999 0.819689
vt 0.282999 0.805073
vt 0.290307 0.790456
vt 0.290307 0.805073
vt 0.282999 0.805073
vt 0.282999 0.790456
vt 0.288425 0.828991
vt 0.273808 0.828991
vt 0.273808 0.828991
vt 0.288425 0.828991
vt 0.268382 0.819689
vt 0.268382 0.805073
vt 0.272923 0.785695
vt 0.272923 0.785695
vt 0.263732 0.798097
vt 0.263732 0.812714
vt 0.263732 0.812714
vt 0.263732 0.798097
vt 0.290307 0.819689
vt 0.290307 0.805073
vt 0.282999 0.790456
vt 0.290307 0.790456
vt 0.282999 0.834306
vt 0.290307 0.834306
vt 0.275235 0.766464
vt 0.282543 0.766464
vt 0.282543 0.766464
vt 0.275235 0.766464
vt 0.265995 0.774492
vt 0.265995 0.785524
vt 0.265995 0.785524
vt 0.265995 0.774492
vt 0.279186 0.778671
vt 0.279186 0.790312
vt 0.267545 0.790312
vt 0.267545 0.778671
vt 0.278411 0.797288
vt 0.266770 0.797288
vt 0.266770 0.797288
vt 0.278411 0.797288
vt 0.265995 0.752290
vt 0.277636 0.752290
vt 0.277636 0.752290
vt 0.265995 0.752290
vt 0.267545 0.778671
vt 0.267545 0.790312
vt 0.279186 0.790312
vt 0.279186 0.778671
vt 0.267545 0.755390
vt 0.267545 0.767031
vt 0.279186 0.767031
vt 0.279186 0.755390
vt 0.279186 0.755390
vt 0.279186 0.767031
vt 0.267545 0.767031
vt 0.267545 0.755390
vt 0.265995 0.752428
vt 0.265995 0.763460
vt 0.265995 0.763460
vt 0.265995 0.752428
vt 0.282999 0.801087
vt 0.282999 0.801087
vt 0.272923 0.785695
vt 0.272923 0.785695
vt 0.282999 0.786471
vt 0.282999 0.786471
vt 0.282999 0.771854
vt 0.282999 0.771854
vt 0.282999 0.771854
vt 0.282999 0.771854
vt 0.258306 0.785695
vt 0.258306 0.785695
vt 0.258306 0.785695
vt 0.258306 0.785695
vt 0.282999 0.815704
vt 0.282999 0.815704
vt 0.282999 0.815704
vt 0.282999 0.815704
vt 0.288425 0.843607
vt 0.288425 0.843607
vt 0.273808 0.828991
vt 0.273808 0.828991
vt 0.288425 0.828991
vt 0.288425 0.828991
vt 0.282999 0.819689
vt 0.282999 0.834306
vt 0.282224 0.812603
vt 0.282224 0.812603
vt 0.282224 0.797987
vt 0.282224 0.797987
vt 0.282999 0.786471
vt 0.282999 0.786471
vt 0.268382 0.805073
vt 0.282999 0.805073
vt 0.282999 0.819689
vt 0.268382 0.819689
vt 0.282999 0.790456
vt 0.282999 0.805073
vt 0.288425 0.828991
vt 0.288425 0.828991
vt 0.273808 0.828991
vt 0.273808 0.828991
vt 0.268382 0.805073
vt 0.268382 0.819689
vt 0.272923 0.785695
vt 0.272923 0.785695
vt 0.263732 0.798097
vt 0.263732 0.798097
vt 0.263732 0.812714
vt 0.263732 0.812714
vt 0.282999 0.790456
vt 0.282999 0.834306
vt 0.275235 0.766464
vt 0.275235 0.766464
vt 0.265995 0.774492
vt 0.265995 0.774492
vt 0.265995 0.785524
vt 0.265995 0.785524
vt 0.279186 0.778671
vt 0.267545 0.778671
vt 0.267545 0.790312
vt 0.279186 0.790312
vt 0.278411 0.797288
vt 0.278411 0.797288
vt 0.266770 0.797288
vt 0.266770 0.797288
vt 0.265995 0.752290
vt 0.265995 0.752290
vt 0.277636 0.752290
vt 0.277636 0.752290
vt 0.267545 0.778671
vt 0.279186 0.778671
vt 0.279186 0.790312
vt 0.267545 0.790312
vt 0.267545 0.755390
vt 0.279186 0.755390
vt 0.279186 0.767031
vt 0.267545 0.767031
vt 0.279186 0.755390
vt 0.267545 0.755390
vt 0.267545 0.767031
vt 0.279186 0.767031
vt 0.265995 0.752428
vt 0.265995 0.752428
vt 0.265995 0.763460
vt 0.265995 0.763460
vt 0.282999 0.801087
vt 0.282999 0.801087
vt 0.272923 0.785695
vt 0.272923 0.785695
vt 0.282999 0.786471
vt 0.282999 0.786471
vn -0.9919 -0.1248 0.0238
vn 0.0000 -1.0000 0.0000
vn -0.9919 0.1248 0.0238
vn 0.0000 1.0000 0.0000
vn 0.0000 1.0000 -0.0001
vn 0.0000 0.0000 1.0000
vn -0.9990 0.0000 -0.0448
vn 0.0000 0.0000 -1.0000
vn 0.0000 1.0000 0.0001
vn 0.0000 -1.0000 -0.0001
vn -1.0000 0.0000 0.0000
vn -0.8353 0.0000 0.5498
vn 0.0000 -1.0000 0.0001
vn 0.9919 -0.1248 0.0238
vn 0.9919 0.1248 0.0238
vn 0.9990 0.0000 -0.0448
vn 1.0000 0.0000 0.0000
vn 0.8353 0.0000 0.5498
usemtl Material.002
s off
f 1/1/1 3/2/1 30/3/1 27/4/1
f 5/5/2 8/6/2 26/7/2 33/8/2
f 4/9/3 2/10/3 29/11/3 28/12/3
f 14/13/4 2/14/4 4/15/4 16/16/4
f 6/17/5 9/18/5 35/19/5 23/20/5
f 20/21/6 16/22/6 4/23/6 9/24/6
f 2/25/7 11/26/7 36/27/7 29/28/7
f 12/29/7 1/1/7 27/4/7 32/30/7
f 8/31/8 7/32/8 11/33/8 12/34/8
f 15/35/6 19/36/6 10/37/6 3/38/6
f 19/36/6 20/21/6 9/24/6 10/37/6
f 11/39/9 7/40/9 34/41/9 36/42/9
f 10/37/6 9/24/6 6/43/6 5/44/6
f 10/45/10 5/5/10 33/8/10 31/46/10
f 5/47/11 6/48/11 7/49/11 8/50/11
f 12/34/8 11/33/8 18/51/8 17/52/8
f 1/53/8 12/34/8 17/52/8 13/54/8
f 11/33/8 2/55/8 14/56/8 18/51/8
f 1/57/2 13/58/2 15/59/2 3/60/2
f 23/61/11 24/62/11 25/63/11 34/64/11
f 35/65/6 28/66/6 24/67/6 23/68/6
f 29/69/4 25/70/4 24/71/4 28/72/4
f 21/73/2 27/74/2 30/75/2 22/76/2
f 34/77/8 25/78/8 29/79/8 36/80/8
f 21/81/8 26/82/8 32/83/8 27/84/8
f 30/85/6 31/86/6 33/87/6 22/88/6
f 22/89/11 33/90/11 26/91/11 21/92/11
f 9/93/12 4/9/12 28/12/12 35/94/12
f 8/6/13 12/95/13 32/96/13 26/7/13
f 7/40/4 6/17/4 23/20/4 34/41/4
f 3/2/12 10/97/12 31/98/12 30/3/12
f 37/99/14 55/100/14 58/101/14 39/102/14
f 41/103/2 61/104/2 54/105/2 44/106/2
f 40/107/15 56/108/15 57/109/15 38/110/15
f 14/13/4 16/16/4 40/111/4 38/112/4
f 42/113/5 51/114/5 63/115/5 45/116/5
f 20/21/6 45/117/6 40/118/6 16/22/6
f 38/119/16 57/120/16 64/121/16 47/122/16
f 48/123/16 60/124/16 55/100/16 37/99/16
f 44/125/8 48/126/8 47/127/8 43/128/8
f 15/35/6 39/129/6 46/130/6 19/36/6
f 19/36/6 46/130/6 45/117/6 20/21/6
f 47/131/9 64/132/9 62/133/9 43/134/9
f 46/130/6 41/135/6 42/136/6 45/117/6
f 46/137/10 59/138/10 61/104/10 41/103/10
f 41/139/17 44/140/17 43/141/17 42/142/17
f 48/126/8 17/52/8 18/51/8 47/127/8
f 37/143/8 13/54/8 17/52/8 48/126/8
f 47/127/8 18/51/8 14/56/8 38/144/8
f 37/145/2 39/146/2 15/59/2 13/58/2
f 51/147/17 62/148/17 53/149/17 52/150/17
f 63/151/6 51/152/6 52/153/6 56/154/6
f 57/155/4 56/156/4 52/157/4 53/158/4
f 49/159/2 50/160/2 58/161/2 55/162/2
f 62/163/8 64/164/8 57/165/8 53/166/8
f 49/167/8 55/168/8 60/169/8 54/170/8
f 58/171/6 50/172/6 61/173/6 59/174/6
f 50/175/17 49/176/17 54/177/17 61/178/17
f 45/179/18 63/180/18 56/108/18 40/107/18
f 44/106/13 54/105/13 60/181/13 48/182/13
f 43/134/4 62/133/4 51/114/4 42/113/4
f 39/102/18 58/101/18 59/183/18 46/184/18
