# Blender v3.0.1 OBJ File: 'StandardPistol.blend'
# www.blender.org
mtllib JustShootProjectileEnemy.mtl
o Cube.002_Cube.004
v -0.000000 0.230297 -0.360925
v 0.173176 0.161309 -0.360925
v 0.233363 -0.001153 -0.360925
v 0.173176 -0.153452 -0.360925
v -0.000000 -0.219052 -0.360925
v 0.173176 0.161309 0.073002
v 0.000000 0.230297 0.073002
v 0.233363 -0.001153 0.073002
v 0.173176 -0.153452 0.073002
v 0.000000 -0.219052 0.073002
v 0.111732 0.061584 0.182282
v 0.000000 0.091317 0.182282
v 0.137672 -0.008437 0.182282
v 0.111732 -0.074077 0.182282
v 0.000000 -0.102350 0.182282
v 0.000000 0.003590 0.845123
v -0.173176 0.161309 -0.360925
v -0.233363 -0.001153 -0.360925
v -0.173176 -0.153452 -0.360925
v -0.173176 0.161309 0.073002
v -0.233363 -0.001153 0.073002
v -0.173176 -0.153452 0.073002
v -0.111732 0.061584 0.182282
v -0.137672 -0.008437 0.182282
v -0.111732 -0.074077 0.182282
vt 0.449419 0.940989
vt 0.438008 0.940989
vt 0.427311 0.940989
vt 0.422704 0.940989
vt 0.454264 0.940989
vt 0.423934 0.974674
vt 0.428541 0.974674
vt 0.434116 0.982349
vt 0.432131 0.982349
vt 0.426696 0.946219
vt 0.437393 0.946219
vt 0.437393 0.967907
vt 0.426696 0.967907
vt 0.448803 0.946219
vt 0.453649 0.946219
vt 0.453649 0.967907
vt 0.448803 0.967907
vt 0.422088 0.946219
vt 0.422088 0.967907
vt 0.433694 0.984469
vt 0.436353 0.984469
vt 0.436840 0.996111
vt 0.439238 0.974674
vt 0.450649 0.974674
vt 0.443645 0.982349
vt 0.438727 0.982349
vt 0.455494 0.974674
vt 0.445733 0.982349
vt 0.439189 0.984469
vt 0.440393 0.984469
vt 0.432549 0.984469
vt 0.448803 0.946219
vt 0.426696 0.946219
vt 0.437393 0.946219
vt 0.434116 0.982349
vt 0.428541 0.974674
vt 0.426696 0.967907
vt 0.437393 0.967907
vt 0.448803 0.967907
vt 0.433694 0.984469
vt 0.436353 0.984469
vt 0.439238 0.974674
vt 0.438727 0.982349
vt 0.443645 0.982349
vt 0.450649 0.974674
vt 0.439189 0.984469
vn 0.0000 0.0000 -1.0000
vn 0.2280 -0.6920 0.6849
vn 0.9300 -0.3675 0.0000
vn 0.3701 0.9290 -0.0000
vn 0.3542 -0.9352 0.0000
vn 0.9377 0.3474 -0.0000
vn 0.9120 -0.3604 0.1960
vn 0.7165 0.2654 0.6451
vn 0.7298 -0.2884 0.6198
vn 0.2176 0.6281 0.7471
vn 0.2551 0.9586 0.1269
vn 0.2424 -0.9580 0.1531
vn 0.9215 0.3414 0.1852
vn -0.2280 -0.6920 0.6849
vn -0.9300 -0.3675 0.0000
vn -0.3701 0.9290 -0.0000
vn -0.3542 -0.9352 0.0000
vn -0.9377 0.3474 -0.0000
vn -0.9120 -0.3604 0.1960
vn -0.7165 0.2654 0.6451
vn -0.7298 -0.2884 0.6198
vn -0.2176 0.6281 0.7471
vn -0.2551 0.9586 0.1269
vn -0.2424 -0.9580 0.1531
vn -0.9215 0.3414 0.1852
usemtl Material.001
s off
f 2/1/1 3/2/1 4/3/1 5/4/1 1/5/1
f 10/6/2 9/7/2 14/8/2 15/9/2
f 4/10/3 3/11/3 8/12/3 9/13/3
f 2/14/4 1/15/4 7/16/4 6/17/4
f 5/18/5 4/10/5 9/13/5 10/19/5
f 3/11/6 2/14/6 6/17/6 8/12/6
f 14/20/7 13/21/7 16/22/7
f 8/23/8 6/24/8 11/25/8 13/26/8
f 9/7/9 8/23/9 13/26/9 14/8/9
f 6/24/10 7/27/10 12/28/10 11/25/10
f 11/29/11 12/30/11 16/22/11
f 15/31/12 14/20/12 16/22/12
f 13/21/13 11/29/13 16/22/13
f 17/32/1 1/15/1 5/18/1 19/33/1 18/34/1
f 10/6/14 15/9/14 25/35/14 22/36/14
f 19/33/15 22/37/15 21/38/15 18/34/15
f 17/32/16 20/39/16 7/16/16 1/15/16
f 5/18/17 10/19/17 22/37/17 19/33/17
f 18/34/18 21/38/18 20/39/18 17/32/18
f 25/40/19 16/22/19 24/41/19
f 21/42/20 24/43/20 23/44/20 20/45/20
f 22/36/21 25/35/21 24/43/21 21/42/21
f 20/45/22 23/44/22 12/28/22 7/27/22
f 23/46/23 16/22/23 12/30/23
f 15/31/24 16/22/24 25/40/24
f 24/41/25 16/22/25 23/46/25
